Energy [MeV/nucl],Differential fluence [cm-2 MeV-1]: H,He,Li,Be,B,C,N,O,F,Ne,Na,Mg,Al,Si,P,S,Cl,Ar,K,Ca,Sc,Ti,V,Cr,Mn,Fe,Co,Ni,Cu,Zn,Ga,Ge,As,Se,Br,Kr,Rb,Sr,Y,Zr,Nb,Mo,Tc,Ru,Rh,Pd,Ag,Cd,In,Sn,Sb,Te,J,Xe,Cs,Ba,La,Ce,Pr,Nd,Pm,Sm,Eu,Gd,Tb,Dy,Ho,Er,Tu,Yb,Lu,Hf,Ta,W,Re,Os,Ir,Pt,Au,Hg,Tl,Pb,Bi,Th,U
1.0,30.137142224845935,23.287869154602852,0.11466410707622349,0.01127224067467502,0.054055035153319775,0.5539771409285962,0.04629310504406555,0.5026283347904393,0.001786027903206436,0.12872382659556658,0.04592371205103033,0.0462187751948374,0.019582875262930923,0.1278508468664086,0.0018322768501643515,0.019046482803157558,0.0007370043909428754,0.0013039070785878849,0.0006890791200700751,0.041054520824453385,0.002172002559953085,0.0077683206318343405,0.007497923279552198,0.023594571636078743,0.011660663854633753,0.08812339250137044,9.322206933507786e-05,0.001719209642146109,6.398509715703813e-05,8.187793333462186e-05,6.621246327911895e-06,1.4611112892377473e-05,9.347315534434589e-07,5.859902714248453e-06,1.0408638159323685e-06,3.0751997532965565e-06,9.821479642348753e-07,3.219330614098634e-06,7.009785308079058e-07,1.728485595900112e-06,3.082122257609766e-07,8.833760782089605e-07,1.0013295614834508e-07,3.448414674951523e-07,1.76207342006569e-07,5.264022006864019e-07,1.6843267843265194e-07,4.770983868668708e-07,1.0525060321598333e-07,5.872746086062279e-07,1.2651558329420315e-07,7.952088389210993e-07,1.4329319093092588e-07,3.690708679513984e-07,8.733571394566295e-08,9.458209724139197e-07,8.336875880366255e-08,2.445124277157519e-07,5.649714927547376e-08,2.1476370969060894e-07,2.4308486159839992e-08,2.2319918404595248e-07,4.1146444538065285e-08,1.826714504867766e-07,4.8553209112216356e-08,1.9106304268964688e-07,7.429075817269355e-08,1.2356320499288337e-07,2.535900644184013e-08,1.2357239607839343e-07,1.8582126619031343e-08,1.1530083788406593e-07,1.0589272599885509e-08,1.1769906726925387e-07,4.114998135275889e-08,1.7649435767609782e-07,1.189442174217916e-07,2.249294406476904e-07,4.229989456826101e-08,7.35731716756814e-08,2.2975085100891087e-08,2.1758302862419212e-07,1.1449193849650282e-08,1.419683549790591e-08,8.725366310046972e-09
1.2648552168552958,49.437660697706754,35.76594156965248,0.17666977827284616,0.01879037883815766,0.08819021679501794,0.8551359169736331,0.07531168074495957,0.7749161171808133,0.0030078470012738215,0.19613147797211747,0.0691774422891875,0.07458356854816359,0.030647655564959173,0.19408060224455215,0.003012347839903695,0.02955598045668949,0.0012596693775600452,0.0022518442523649174,0.0012053143076114256,0.062091422682415645,0.0034859232318031645,0.012463268241314392,0.011699994204099458,0.03607895655583128,0.01809146256048834,0.13596323887404546,0.00016327355943214088,0.0027860274432408554,9.85597328289477e-05,0.00012622537987605958,1.0191875973772246e-05,2.248909834477323e-05,1.4391293929254574e-06,9.016061468455314e-06,1.6040542293512037e-06,4.741116945900218e-06,1.515525740121616e-06,4.968746000863226e-06,1.0832123394565735e-06,2.6735341639512657e-06,4.773335404852778e-07,1.368328369161565e-06,1.5534918233056678e-07,5.362665041169603e-07,2.7445383743321873e-07,8.210100591105459e-07,2.628370295462287e-07,7.465280911041166e-07,1.6517066211259242e-07,9.218935880660967e-07,1.984301827806139e-07,1.2367154386667831e-06,2.2414877495970104e-07,5.746600696090133e-07,1.3605064576417308e-07,1.4623041954678608e-06,1.2903555314055976e-07,3.78997575864678e-07,8.778929674818466e-08,3.327986133411732e-07,3.778763845370186e-08,3.4861373215747585e-07,6.371804090488678e-08,2.8297354730988494e-07,7.502927886571499e-08,2.954129244452886e-07,1.1497909994367157e-07,1.912553560978538e-07,3.922438485717781e-08,1.9123760669367581e-07,2.8752053776442008e-08,1.7850965989388987e-07,1.6397830007823965e-08,1.8219044897521696e-07,6.366325136178665e-08,2.7320312723397697e-07,1.8428934549742788e-07,3.487796232579817e-07,6.562903365024119e-08,1.1419731489386083e-07,3.565378789326041e-08,3.386171761442395e-07,1.7838575578174544e-08,2.2198210817509887e-08,1.3632805111991645e-08
1.5998587196060572,80.19344115206334,54.30277654964709,0.26882612686100615,0.030934800775827494,0.1421566143168708,1.3048145728763831,0.12110256296173397,1.1809520931999387,0.005005569527855296,0.29536173321960446,0.10298026329355539,0.11889886965309238,0.047615928576236595,0.2922129456272776,0.004996564088343447,0.046309642632492244,0.0021605128238370145,0.0038131892816807853,0.002065741709224395,0.0919867467968347,0.005537625062099208,0.019771922393801218,0.018058011892533303,0.05457041550064201,0.027756685949145106,0.20764428091188836,0.0002827706988455369,0.004468312571353919,0.00015043283973816728,0.0001928903903456461,1.5577479420225907e-05,3.4365149606298196e-05,2.2033734913687037e-06,1.385000028326544e-05,2.4633974261294145e-06,7.302314203833055e-06,2.339669083534869e-06,7.704080586747742e-06,1.679020903297889e-06,4.1471146455506715e-06,7.409161242031038e-07,2.127627245794088e-06,2.41099154592457e-07,8.348219736711999e-07,4.272072456155405e-07,1.2739250451358117e-06,4.0827003923346523e-07,1.1524532404219035e-06,2.5430879069940655e-07,1.4121239178083227e-06,3.0354077416874234e-07,1.886808270543789e-06,3.4249316562372863e-07,8.773600438663586e-07,2.0789900468464322e-07,2.2339987165666393e-06,1.9726259938230757e-07,5.797730758248177e-07,1.342569915833967e-07,5.096265463597127e-07,5.7881732773511304e-08,5.343580373924001e-07,9.764991993651137e-08,4.339183306529909e-07,1.1507465117510092e-07,4.5334593913695036e-07,1.7648322837981657e-07,2.936309425364933e-07,6.032405499437407e-08,2.9426963309665503e-07,4.4354643906719175e-08,2.756215351636454e-07,2.549252905195103e-08,2.8334967677861804e-07,9.905659860964236e-08,4.248344520605081e-07,2.8662703944277083e-07,5.424341643910604e-07,1.0183082063346262e-07,1.772012304074511e-07,5.530674430367903e-08,5.241583181475611e-07,2.76921676683467e-08,3.427630594811296e-08,2.1050078232649644e-08
2.0235896477251574,128.6368789216221,81.45740652057088,0.4037384849279592,0.050266915837658833,0.22626367988065083,1.9668626624363965,0.19236512245385035,1.7779569322873412,0.008239369602997995,0.4396854326746824,0.15472270670309715,0.19056129177313522,0.07455511533450149,0.4437962268118197,0.008111101747708,0.0710213089121326,0.0036202060823018636,0.006379737802692856,0.0035010386339154554,0.13483660631987732,0.008699356136424424,0.031012443913234915,0.027599468819141687,0.08172567352700376,0.042163150591882734,0.31419979141099835,0.00048596531784626703,0.007097824847096861,0.0002283318208037549,0.000292808991711124,2.3750439604319883e-05,5.266283984439435e-05,3.3728381464779085e-06,2.1241353411271522e-05,3.7853778977059265e-06,1.1173965979189419e-05,3.5776389887413896e-06,1.1739270234739886e-05,2.565295752352365e-06,6.3331766110464095e-06,1.131972593421267e-06,3.2418922710146196e-06,3.690167012166818e-07,1.2653529181589215e-06,6.475748592433226e-07,1.929305206735579e-06,6.188293733591054e-07,1.7443220048768207e-06,3.8462886677565966e-07,2.137187930358782e-06,4.589096372774113e-07,2.8556158454627244e-06,5.190338564887128e-07,1.3305571344354297e-06,3.154545025976441e-07,3.4037624753025456e-06,3.0075759759073107e-07,8.840432305258592e-07,2.048069172401945e-07,7.811041659387968e-07,8.839092225468965e-08,8.159964734345638e-07,1.502837426421999e-07,6.682025598504034e-07,1.770121635862905e-07,6.977673097744895e-07,2.706903397869588e-07,4.5048065504124816e-07,9.251243930982608e-08,4.515511623788436e-07,6.80848043779625e-08,4.232907044628103e-07,3.894060203687337e-08,4.332827664783726e-07,1.5133910766352746e-07,6.497931303357584e-07,4.378397141630348e-07,8.296133928870127e-07,1.559181858167989e-07,2.713556624444e-07,8.463025890915533e-08,8.017922495548036e-07,4.2202863377133615e-08,5.18007909284033e-08,3.1799207237132415e-08
2.5595479226995357,204.02467965905694,120.6540432032002,0.598135370525048,0.08057137959425241,0.35539044930500285,2.927216549418223,0.30166163993168166,2.6436515819357544,0.013668756775045528,0.660047126389098,0.22743431542676346,0.30074455733283595,0.1139086848767358,0.6588148578365071,0.013007334055839837,0.10772623260931524,0.005993322280142077,0.010562491370532842,0.005865209350439361,0.19547487315582168,0.013525085726767055,0.04823821026118465,0.041883505632800716,0.12160709050716415,0.06381173575621214,0.4730190974883955,0.0008320129206413552,0.011215556165286258,0.0003463054288815439,0.0004456524190407303,3.603308322608798e-05,7.934495104689155e-05,5.089325340460756e-06,3.1705211156836484e-05,5.67042110700842e-06,1.6677044817968807e-05,5.34359187691467e-06,1.755899357532254e-05,3.8409407847775395e-06,9.490748718377274e-06,1.697652172236192e-06,4.85288904127603e-06,5.530862947216206e-07,1.8972443022296527e-06,9.71173762258231e-07,2.8938198961282267e-06,9.290158214806119e-07,2.622465023677288e-06,5.795879440879951e-07,3.245149878201974e-06,6.968355863790621e-07,4.314646850695811e-06,7.883298723937607e-07,2.012676640817072e-06,4.77549913133129e-07,5.151850844911541e-06,4.554956119185585e-07,1.3400627804756325e-06,3.1091022412381646e-07,1.1811232516475992e-06,1.3438940091433807e-07,1.2386036295480282e-06,2.272940346298764e-07,1.0112315635840345e-06,2.6757988179098495e-07,1.0554393171432198e-06,4.095985728867355e-07,6.817060770536766e-07,1.3998357737178377e-07,6.836435057456193e-07,1.0266587143068979e-07,6.38157871169926e-07,5.851574886074048e-08,6.505674597892366e-07,2.2713943731514462e-07,9.748793544953947e-07,6.565561436797308e-07,1.2437582992046926e-06,2.3349558681524726e-07,4.0658692232038264e-07,1.2673489965120436e-07,1.1994840715249205e-06,6.306790880413211e-08,7.727957968007088e-08,4.752926378746711e-08
3.2374575428176433,313.19670384384625,176.36258860177054,0.8736308457491716,0.12731749629277486,0.5506807711448601,4.2987190094944525,0.4684258296722116,3.963763135537836,0.022192473047083522,0.9699419263298334,0.3303995826453352,0.46749009054734264,0.17182781194444993,0.9658070431385676,0.020603986287932825,0.16141071721612435,0.009813052636076635,0.017347241029666314,0.009715389629140201,0.28048214228425117,0.020917344025447992,0.0750373018811327,0.0637180551277887,0.18067471347626674,0.09637978768993992,0.712100638820191,0.0014149288853732816,0.017705941098668958,0.0005174855374389071,0.0006647533207949837,5.32630267882573e-05,0.00011731642591718376,7.5198869721273924e-06,4.6792262275335675e-05,8.389354663472063e-06,2.466025079814483e-05,7.912824074375006e-06,2.602072305846173e-05,5.697655877367919e-06,1.4087229124899061e-05,2.522201569375438e-06,7.2337895779469175e-06,8.246634136553729e-07,2.852072728161747e-06,1.4620219183802143e-06,4.353629817491374e-06,1.3984669032827868e-06,3.927327282855323e-06,8.689349951793339e-07,4.840781705371274e-06,1.0389955311991534e-06,6.426610021169339e-06,1.1763445105750625e-06,3.001054739928659e-06,7.127520070866086e-07,7.637929715721258e-06,6.759389651868916e-07,1.9931151082539496e-06,4.6342674793264936e-07,1.755426069271246e-06,2.0052921998381726e-07,1.8569347463870451e-06,3.3747919634493037e-07,1.5024375987819635e-06,3.963200650559046e-07,1.5642639708652801e-06,6.062132177747987e-07,1.0091056545114484e-06,2.072787246914786e-07,1.012760000938168e-06,1.5168275765541563e-07,9.428250400483395e-07,8.650241831504957e-08,9.617449879630342e-07,3.3564172461168803e-07,1.440678325353302e-06,9.690012362452516e-07,1.83621575469475e-06,3.449649807057062e-07,6.011416912489431e-07,1.8729184274202494e-07,1.7777558722957616e-06,9.361329046653218e-08,1.1478262035380066e-07,7.025124901913347e-08
4.094915062380427,473.39024838171116,254.2606165892582,1.2573362969008681,0.19921765436420064,0.8595254882451445,6.3015543028141305,0.7324347084249838,5.811373110187997,0.035565453455014474,1.4074268458820758,0.4741716364548301,0.7169919077022817,0.25602628720245046,1.3994952537661138,0.03223579748191041,0.23915881886648047,0.015923821233730293,0.028529626149634058,0.016023862207596513,0.4000073600362823,0.03230909118311672,0.11512652194679289,0.09456321176980907,0.2642256722816313,0.14152826038792135,1.04531256762469,0.0023425146869755042,0.027241976235581992,0.0007571369329045401,0.0009724479048725442,7.784319327841696e-05,0.00017170761235760646,1.102857433139599e-05,6.92945988403682e-05,1.24370774000473e-05,3.65166785875794e-05,1.1724927909294377e-05,3.849560213085714e-05,8.449139660970334e-06,2.0863122247682297e-05,3.738941897280718e-06,1.0720108407445253e-05,1.222469855973138e-06,4.212522656157074e-06,2.1590010390108074e-06,6.420060853073512e-06,2.0649696283404285e-06,5.7975709425266555e-06,1.280921089554792e-06,7.088146452677546e-06,1.5198896249978822e-06,9.356667723999314e-06,1.718711937007057e-06,4.3759050396111005e-06,1.0399528182438067e-06,1.111118641848546e-05,9.84094827651397e-07,2.904046503063285e-06,6.764793309413594e-07,2.561682143016907e-06,2.9300334049371436e-07,2.719980490329571e-06,4.928758867828694e-07,2.1957330606726493e-06,5.777267633503341e-07,2.281801779902417e-06,8.851039205312133e-07,1.4726836161490888e-06,3.024582485198596e-07,1.4789969505068316e-06,2.2258464268707282e-07,1.3850713587130524e-06,1.2723597851188958e-07,1.416320529475616e-06,4.961710347016094e-07,2.129309616146183e-06,1.4277744877647657e-06,2.706063323655696e-06,5.079510537824284e-07,8.852401440093412e-07,2.753731314164232e-07,2.59727156537327e-06,1.3651657802176833e-07,1.6456575077643994e-07,1.0068369915353279e-07
5.1794746792312125,707.944681942307,361.34153754856845,1.7924940120685549,0.3133160552873468,1.310123466701721,9.188287814098684,1.1175498825906849,8.414751943528643,0.056256820186733635,2.0161171579490937,0.6727983817506779,1.0870803138922085,0.37815266159022193,2.0078542077675854,0.05021239955001053,0.3521138132931714,0.025845571465722174,0.045770301014254014,0.026354279664742745,0.5698652564655762,0.048561439743814896,0.17242998685326402,0.13791598523909687,0.37772565796098284,0.20505703428759092,1.5129289147876015,0.003831353449380485,0.04131250887338863,0.0010986982866916038,0.0014151907827335856,0.00011407015628027015,0.0002506638948939087,1.609585140925076e-05,0.00010053828931133816,1.8081642217764837e-05,5.30558957875781e-05,1.7061265242883892e-05,5.6099494941731235e-05,1.2329633381529013e-05,3.0437100619546322e-05,5.461029126927361e-06,1.5616658918364842e-05,1.787199364032444e-06,6.101152858806289e-06,3.129352296146547e-06,9.290692281284336e-06,2.9912908872281434e-06,8.368032766906093e-06,1.846539112923827e-06,1.0204816125554277e-05,2.185981243973259e-06,1.343094369712982e-05,2.4708256101761728e-06,6.285502060881377e-06,1.4952682289208125e-06,1.6065175627689966e-05,1.423794658555997e-06,4.204095719220431e-06,9.792144681938916e-07,3.712598421351967e-06,4.249242005581884e-07,3.943469618128127e-06,7.178561864402349e-07,3.2002103244466003e-06,8.404558675381873e-07,3.3217455647836008e-06,1.2856474917958192e-06,2.138453569304761e-06,4.3885813414140337e-07,2.1474082549950643e-06,3.203554228047624e-07,1.992520632576501e-06,1.822438282733357e-07,2.0260912704229425e-06,7.062047179974657e-07,3.029990541387424e-06,2.029209624449344e-06,3.8465198375369505e-06,7.21975807384672e-07,1.2590496472382292e-06,3.907420611500373e-07,3.684890938920584e-06,1.937395789905511e-07,2.3241716696200478e-07,1.4225572256358814e-07
6.5512855685955085,1046.7571942599768,505.91983986475606,2.5657990305602616,0.47964321188870834,1.9706264974702963,13.11312939099832,1.6810686963335761,12.022142056451608,0.08799552394226606,2.8550299746562895,0.9477807724299335,1.634920016688716,0.5578308060793312,2.886120583187163,0.07776566150339434,0.517535614266279,0.041012611065151375,0.07202975157392365,0.04208271426394114,0.790621030769339,0.07192938752155834,0.25556314861947366,0.20002184724453978,0.5362047030766453,0.29746289041588947,2.186044803126653,0.006270244286588391,0.06262976084857548,0.0015867021308883745,0.0020466946183762924,0.00016373793275488194,0.0003603528444232926,2.3144434426534074e-05,0.00014315493688483546,2.5818392307033063e-05,7.545085859568411e-05,2.428254501907939e-05,7.982394975866075e-05,1.756964351856836e-05,4.339010299769318e-05,7.789886006925324e-06,2.223895248982976e-05,2.5512188160410704e-06,8.685769120980372e-06,4.45660405011439e-06,1.3206153214912393e-05,4.256396931090816e-06,1.1901083907008847e-05,2.636554105194104e-06,1.4610532592274503e-05,3.1435331556202625e-06,1.9160798854857007e-05,3.544503853228849e-06,8.975691705300698e-06,2.1371188653132433e-06,2.2700979549876026e-05,2.0139387343456826e-06,5.957954357364638e-06,1.393044165028433e-06,5.258928792969707e-06,6.05097012264621e-07,5.633666771297238e-06,1.0131563995023507e-06,4.519901793852102e-06,1.178980672378798e-06,4.6630348789073135e-06,1.8022483997979931e-06,2.9953088995607453e-06,6.146105916298887e-07,3.0093808968117075e-06,4.4906888821051455e-07,2.7925929913172116e-06,2.5497313264691373e-07,2.8339326787193726e-06,9.87593795090912e-07,4.2401582357867275e-06,2.835053070815297e-06,5.375851324102781e-06,1.0085695089726582e-06,1.759558461505904e-06,5.460572853925198e-07,5.149293402969439e-06,2.7047367277994e-07,3.24843587929162e-07,1.984678225456747e-07
8.286427728546842,1529.2370317294008,697.469659320298,3.573114640072056,0.7230825294146237,2.921386996272932,18.45147554471218,2.495186838757448,16.96258977174514,0.13679744482670048,4.021633107726873,1.3325349278907652,2.453665045820377,0.8072759346846251,4.065913766189306,0.11690037958089028,0.739191341568945,0.06365798567967523,0.11258237074906377,0.0662456660122946,1.0805914913892203,0.10657476163112668,0.37811855354691726,0.2879949738514954,0.7553263587289606,0.4227801306410522,3.1114397808254175,0.010040036953223313,0.0930282575388611,0.002255467879246188,0.002907315769446792,0.00023041225351995507,0.0005058256460601124,3.248625849313837e-05,0.00020017451793819937,3.62098097107993e-05,0.00010547820173466055,3.3993155884951883e-05,0.0001118741152900692,2.4656484339797702e-05,6.093717244800311e-05,1.0949997849250441e-05,3.136173840732385e-05,3.5975727693166445e-06,1.2293318761399006e-05,6.328019154093088e-06,1.873216952461236e-05,6.043845256616379e-06,1.6790991209599947e-05,3.702914462776407e-06,2.0347178942690225e-05,4.346395886574918e-06,2.636372683107527e-05,4.899149639733558e-06,1.2362040878805532e-05,2.9459374607129857e-06,3.12494440701855e-05,2.7743262865784707e-06,8.222374665220786e-06,1.926404612202174e-06,7.257077611806522e-06,8.379578553506018e-07,7.808387634224794e-06,1.3986220090975659e-06,6.244071946946883e-06,1.6250968340442146e-06,6.43204734079459e-06,2.484432628736869e-06,4.130723287890714e-06,8.481703110223173e-07,4.155855629991036e-06,6.189798627886846e-07,3.854552111417522e-06,3.5200404894985147e-07,3.9161856920237305e-06,1.3637748903417356e-06,5.8567659905324255e-06,3.931123352994856e-06,7.465137200144072e-06,1.3980184102576082e-06,2.4383172188202193e-06,7.549411271281749e-07,7.1005274008377904e-06,3.727996857993168e-07,4.4121244831286666e-07,2.6953016570988605e-07
10.481131341546858,2205.8973435116186,947.0974846882382,4.898295524709043,1.074065969227186,4.272856523130398,25.620504811462425,3.661230052169718,23.77317457849019,0.2116789055949565,5.638178508361082,1.82211228608043,3.578450404946596,1.1422667617834905,5.603977194100277,0.17301788090815626,1.0394724366246777,0.09802449433000827,0.17454156242187185,0.10429844047667615,1.4757067087583102,0.1545217301207467,0.5489363913776616,0.40559505293241205,1.0472548995936555,0.58808272224533,4.343075505616819,0.01573271072279052,0.13566155131171914,0.0031306166174101813,0.004034505968446832,0.0003183621723227628,0.0006991564115321649,4.493517922097205e-05,0.00027893858352358205,5.041439136673875e-05,0.00014696940068707347,4.7391035436484714e-05,0.00015593371383669302,3.443005095188918e-05,8.500932673982167e-05,1.528837009774993e-05,4.3461279236884445e-05,5.001873071353623e-06,1.6913463440054415e-05,8.686756888453091e-06,2.559058333968805e-05,8.265364859809816e-06,2.2862530896084797e-05,5.047259351523225e-06,2.7653571118904435e-05,5.905492639236413e-06,3.568057780168632e-05,6.6493792086005804e-06,1.6766018967965655e-05,3.99790195310359e-06,4.237086386294109e-05,3.7655284222111557e-06,1.1169808504679738e-05,2.6174156426854105e-06,9.870730598253977e-06,1.1403665539145351e-06,1.0650898651278229e-05,1.9069109176200404e-06,8.519502566492146e-06,2.2244375844973767e-06,8.81081508552448e-06,3.388762195115052e-06,5.631804835325831e-06,1.15569051729201e-06,5.666587400111664e-06,8.414212112140213e-07,5.235770200942101e-06,4.766574985736498e-07,5.298370148678113e-06,1.8440864287075065e-06,7.914666533261772e-06,5.276997621712721e-06,1.0012716142181638e-05,1.8766460340575816e-06,3.2747323648025292e-06,1.0141854349844374e-06,9.532681749519115e-06,5.008602363778339e-07,5.931014241992204e-07,3.615570423017136e-07
13.257113655901096,3139.454222948271,1292.0374572060273,6.617961339315075,1.5772501681672118,6.195063931506338,35.216497062926386,5.370210818186558,33.20880809781757,0.3175942108664437,7.67112331196154,2.4518233792986974,5.130177597518861,1.5955860467332217,7.636616793241987,0.2559379931313775,1.4608155506248286,0.14949617949255237,0.2645541116225354,0.16059330446906997,1.973475960532968,0.2195368485115435,0.7764757854741012,0.5580295754796512,1.4148600364622388,0.802032301932683,5.937754310258111,0.024161595709460713,0.19372952470419919,0.004275499958405387,0.005533764693792203,0.00043840213970607425,0.0009597543879947552,6.15197000302835e-05,0.0003754733184188355,6.825947802057706e-05,0.000197120173626176,6.36099689081062e-05,0.00020951105992526119,4.632215412072869e-05,0.00011431097220094431,2.056950718908269e-05,5.84415209706594e-05,6.736785195819567e-06,2.2702125018115164e-05,1.1661950186586204e-05,3.4328021476564946e-05,1.1099469997582951e-05,3.064443406386281e-05,6.762109606513051e-06,3.706351278854938e-05,7.913066394511834e-06,4.77324432613466e-05,8.960434997897072e-06,2.2436911081311984e-05,5.356520858008612e-06,5.644693363255627e-05,5.020925352616905e-06,1.4924339307973414e-05,3.5103463629799607e-06,1.3178923910559024e-05,1.5311325327603024e-06,1.4323173258515661e-05,2.543805313465138e-06,1.137347476545213e-05,2.9401721872526143e-06,1.1654490301897299e-05,4.485743782685625e-06,7.458556749005242e-06,1.5308515439545086e-06,7.511447707299037e-06,1.1153316161679394e-06,6.944284839274414e-06,6.325518328195236e-07,7.03271903304321e-06,2.4495691101031027e-06,1.0525371147366037e-05,7.018708525905927e-06,1.3319974881591092e-05,2.4946700700978646e-06,4.355595364444242e-06,1.3466188644053582e-06,1.2636138666147635e-05,6.632946257124313e-07,7.795849300768592e-07,4.772285318947707e-07
16.768329368110084,4404.79873655787,1717.8154937894599,8.843099785683998,2.3063798218398714,8.942003027828648,48.36586702205194,7.701171372798643,44.988137078280225,0.4690395277067347,10.275738919558993,3.2895675946543146,7.295263518533646,2.2151297208852907,10.356121798526333,0.3693639968867149,2.0085698372800387,0.22332798058940848,0.3910452742392838,0.24163603987409032,2.5894129103345067,0.3055668498074983,1.0785634971450428,0.7595495649203623,1.8843191364518035,1.087035007720031,8.042399138028083,0.03691220601151837,0.2738461848081194,0.005782259904498276,0.007459031030588598,0.0005807223762524955,0.0012686465302472,8.125849008774738e-05,0.0004940256821473191,9.008738633992168e-05,0.00025936287047476585,8.378643147478972e-05,0.000275986512162901,6.11301270604898e-05,0.00015093183656599772,2.7188605118691765e-05,7.719467537810414e-05,8.917892815968649e-06,3.0040338563270017e-05,1.5444777247982535e-05,4.552145765699929e-05,1.473101912719488e-05,4.0507494766396754e-05,8.931309892120857e-06,4.86361814555472e-05,1.0360584114031506e-05,6.198141702249773e-05,1.164833329581898e-05,2.918505696992126e-05,6.9739166909552215e-06,7.34274138523012e-05,6.537093613861179e-06,1.9458792242690002e-05,4.579166643743753e-06,1.7205665719918257e-05,2.0008690459991677e-06,1.873267657706411e-05,3.329197386456118e-06,1.489616629989787e-05,3.85155078765501e-06,1.527860716169503e-05,5.871989872824083e-06,9.757431418869794e-06,2.000947677719678e-06,9.825017374203769e-06,1.4555282436768074e-06,9.066088959784188e-06,8.240516335438211e-07,9.160171603148565e-06,3.1854824723934042e-06,1.3674202519619186e-05,9.10172737594542e-06,1.7282617251593952e-05,3.2373575968827045e-06,5.654564504150054e-06,1.7495096040538648e-06,1.648441794156625e-05,8.669400068739387e-07,1.029428931847088e-06,6.302019987298472e-07
21.209508879201906,6086.967071386107,2246.145821747454,11.759015794619629,3.2990365139619864,12.51125683961484,64.57692946780553,10.780405473655183,59.95395067728517,0.6918242592246566,13.766622554318252,4.3266929515914025,10.247245629997545,3.0170767378879644,13.785540675331719,0.5205392195728717,2.6988206328765134,0.32454000919821824,0.5701649920608228,0.3557634379821735,3.324680946586031,0.4208733970482572,1.4870544266714196,1.0113192046887358,2.4668976507224847,1.422223699264338,10.6176718276586,0.05413118477048182,0.37635877984050015,0.007535134251738661,0.009733388979718432,0.0007545505173768649,0.0016461253977147208,0.00010553895055935455,0.0006416525622104683,0.00011711884027472704,0.00033877568410682884,0.0001095543004720908,0.0003603665351810837,7.995094293179144e-05,0.00019696456656225885,3.549548330778466e-05,0.0001005386243402343,1.1629509650974804e-05,3.890173091675139e-05,2.0009584306385554e-05,5.86254682126401e-05,1.899209426638914e-05,5.208417105099168e-05,1.148521614737647e-05,6.263827076213994e-05,1.3368185102430152e-05,7.974925584962229e-05,1.5043833322346123e-05,3.756422845744295e-05,8.981847098116828e-06,9.436215269374711e-05,8.406182054975969e-06,2.5038589935077016e-05,5.902182779592929e-06,2.214272558449326e-05,2.58114377388289e-06,2.4205962730037227e-05,4.281627615666616e-06,1.916852347061431e-05,4.934195660035286e-06,1.9583819275495497e-05,7.5280034335184975e-06,1.2520349400367848e-05,2.5697611113315008e-06,1.262424750635301e-05,1.8812501018952861e-06,1.1726390884955593e-05,1.0685497377878286e-06,1.1891533447431825e-05,4.137615655872133e-06,1.7785084945204354e-05,1.186042312554598e-05,2.253428778815437e-05,4.227924287237047e-06,7.3899679243154415e-06,2.2910331552368536e-06,2.153042288925823e-05,1.1305628889972046e-06,1.3232793255362478e-06,8.070656073258203e-07
26.826957952797258,8275.943222871834,2888.310387679497,15.366879081066203,4.619649325428162,17.23337627749387,84.39219685109467,14.883835677787584,79.75375862730685,0.999062669885659,18.0044249038079,5.580571782768134,14.018684911455317,4.0017668698635696,17.85528741083715,0.7178304670589568,3.5501985251968025,0.46496169589372316,0.8165989371727888,0.5198774150635057,4.223740552999674,0.563802473730237,1.9756971261507896,1.3100720923941647,3.1314735418846196,1.8199467861715948,13.65665187676315,0.07797468885572284,0.5033735440055881,0.009683658969740772,0.012513263256331359,0.0009704005488911856,0.0021170226818328967,0.00013552955309744725,0.0008166870280647821,0.00014959758563806247,0.0004279065263326102,0.0001385023366194306,0.00045625111879709143,0.00010136407837434376,0.00024997659693364076,4.5100243338952977e-05,0.00012767895621161176,1.4787896105724598e-05,4.950310783150825e-05,2.5504253308729652e-05,7.481860577906049e-05,2.4263694246989674e-05,6.619877860705133e-05,1.4594900613509057e-05,7.930034091282856e-05,1.6866739810542445e-05,0.00010035627022153819,1.8962148621274314e-05,4.736801960490078e-05,1.1336112745322323e-05,0.00011980853997187048,1.0682872042980062e-05,3.1839380616716785e-05,7.507081632902638e-06,2.8228585059477432e-05,3.289298794569848e-06,3.083435774293254e-05,5.477999716290061e-06,2.454279497299701e-05,6.331910048619107e-06,2.514957239752301e-05,9.684380743174411e-06,1.6132844342046937e-05,3.3205294567528826e-06,1.632392824689025e-05,2.4151513730682678e-06,1.50563476738768e-05,1.3678613029954648e-06,1.5211453008618524e-05,5.28833425152025e-06,2.2712499189318806e-05,1.5098171490451178e-05,2.8689151745403318e-05,5.372610086778295e-06,9.3930423744537e-06,2.90113094430409e-06,2.7194472793944282e-05,1.4277447469397185e-06,1.686009512053909e-06,1.031005239381679e-06
33.932217718953304,11056.901801074671,3667.0167105642477,19.522674485845823,6.354233221214615,23.667379235410085,109.62763908253729,20.45970770313361,104.05212698821028,1.4084017021150843,23.087553663231123,7.048139465376525,18.758076984406056,5.218121300882588,22.783317828604527,0.9848226706029208,4.636923993574686,0.6531985273413485,1.1294346349035236,0.7334280403806519,5.234486649977448,0.7342308503245932,2.5677098805434224,1.6607313328778734,3.8992056379677558,2.2905208111551953,17.281538209959734,0.11065392721047948,0.6618900683104785,0.012252286104261056,0.015832894835089106,0.001211288684517737,0.0026327526861676005,0.00016864415902370102,0.0010166985147625567,0.00018653581353474436,0.000533868259916231,0.00017299675579018962,0.000569815435357536,0.0001268244134574027,0.0003127576031986579,5.6461070794580756e-05,0.00015942507801581002,1.8505252473471718e-05,6.166059956488638e-05,3.1753439289544654e-05,9.273106079374123e-05,3.0108420371831017e-05,8.226827335752883e-05,1.8201321786876354e-05,9.92538295888273e-05,2.113581592262241e-05,0.00012631120958301153,2.384373514571321e-05,5.983971834379932e-05,1.4335056103164988e-05,0.00015019423984644916,1.3404407649734909e-05,4.002283269272536e-05,9.4609368086139e-06,3.5468783523757654e-05,4.150713446022074e-06,3.903103179739578e-05,6.879524811946551e-06,3.084799730348841e-05,7.905865476188781e-06,3.142756164725575e-05,1.2061143268777684e-05,2.0058981229301702e-05,4.116939718797397e-06,2.0255209681632532e-05,2.994311200827265e-06,1.8669803224889606e-05,1.6955726634447456e-06,1.8866237094417743e-05,6.5764267851001594e-06,2.8274446947830102e-05,1.8823671081825498e-05,3.580325409255679e-05,6.7198309992764766e-06,1.175924008482242e-05,3.6430418747021752e-06,3.4212294134767206e-05,1.795862520710225e-06,2.104007592261471e-06,1.2835309696885246e-06
42.91934260128778,14494.52654295785,4606.631246771732,24.40304632508168,8.633793268955756,31.59888696806739,140.5808890928571,27.484339512324116,132.16120080228143,1.935714179861866,28.905943097051697,8.774576990275653,24.735967570130505,6.710545631888886,28.758089499128072,1.2901258250782341,5.851404551768209,0.8820173924171985,1.5218131931024377,1.003103050258325,6.288160979401462,0.9355014759356608,3.286182298014968,2.0624366501790763,4.75359454633514,2.8006320863887875,21.339260822769326,0.15142815062681125,0.8480965076916508,0.014980655961799058,0.019371179043486352,0.0014866617504589146,0.0032230053832558074,0.00020610970884043877,0.001234418774933616,0.00022732865617109226,0.0006468055028831384,0.00020985392249417504,0.0006918020543905013,0.00015420734538065852,0.0003805516821059921,6.878609182173923e-05,0.000195288303611181,2.2673829749806083e-05,7.591460352328592e-05,3.9132156842900786e-05,0.00011455762569903496,3.7226526386398525e-05,0.00010215390602694277,2.2521600067361692e-05,0.00012211415508685378,2.5953051793500116e-05,0.00015339381900493414,2.9185019156791942e-05,7.25913863312725e-05,1.740557238418626e-05,0.00018208896696038062,1.6265165377848837e-05,4.862397431341559e-05,1.1515533537258335e-05,4.3138465894987675e-05,5.059762221558595e-06,4.764944876637001e-05,8.380870083904674e-06,3.760817707791312e-05,9.681533350613236e-06,3.851478826251937e-05,1.4842443156127838e-05,2.4724979547379203e-05,5.080746103919668e-06,2.5011624126020625e-05,3.70200436170093e-06,2.3111471774605347e-05,2.1002352468074773e-06,2.3387848168704082e-05,8.134560481393307e-06,3.495149531841571e-05,2.3240201179860488e-05,4.419542088651335e-05,8.275038134758526e-06,1.4481236581153162e-05,4.4739068997866134e-06,4.1885345971735875e-05,2.1986771007027673e-06,2.5528866417644344e-06,1.5557712603691125e-06
54.286754393238596,18610.673017907735,5706.959134805245,30.132346190412033,11.444287204114785,41.01964447640629,175.1392289777987,35.69709733521366,163.74739424806094,2.6351576714220752,35.81185249165937,10.5880045858274,31.568185492977328,8.252152552441993,34.74815740528656,1.6402845946235711,7.146465712322206,1.1602846514352823,2.007229274800361,1.341433291976637,7.3885273546211625,1.1600855486181716,4.035542075421557,2.4794054178931257,5.604581225969587,3.3397403703833906,25.643558974863225,0.20364721791318433,1.0558139537958362,0.017995177703570245,0.023281735639523283,0.0017683521242217075,0.003836139411481889,0.00024622228920289773,0.0014842114228228076,0.00027360932798762546,0.0007811759215989337,0.0002538051448864217,0.000838605524342695,0.000187078298847911,0.00046250591551527713,8.372817238490847e-05,0.00023709739172768766,2.7609905121367473e-05,9.173634382365389e-05,4.7318430815903334e-05,0.0001378972119108552,4.486563942796309e-05,0.00012181760007775253,2.687632418764193e-05,0.0001455464733274108,3.102745254808407e-05,0.00018462488607111062,3.499755305554066e-05,8.754674030213557e-05,2.100990383428954e-05,0.0002203868539916646,1.9702816636357206e-05,5.890586406948375e-05,1.3950943108403165e-05,5.238104617086779e-05,6.140168510873574e-06,5.789719384847428e-05,1.0193250658391908e-05,4.5780456578690775e-05,1.171821796505388e-05,4.665110616373101e-05,1.7887817049041973e-05,2.9785574102040247e-05,6.1182253391367465e-06,3.0137536248480347e-05,4.446654508183336e-06,2.7759380347866625e-05,2.517424769721251e-06,2.800897008918191e-05,9.737576240515301e-06,4.184584009803512e-05,2.7748987149588742e-05,5.2787323086541e-05,9.880042280859652e-06,1.7297222946454488e-05,5.336504340354821e-06,4.991131829058512e-05,2.6205793153717267e-06,3.0444848376277956e-06,1.8537074365048088e-06
68.66488450043,23356.391544644703,6813.272764888158,36.31420501876702,14.65745117185995,51.813213720504706,211.65405494990247,45.23385249287842,199.93088383976544,3.4193403857465468,42.525114896026096,12.354573973198232,38.854165701743916,9.896718115262473,40.92485165159111,2.0370956046960362,8.541262833300793,1.4894052432463405,2.551032035000196,1.7367335130321875,8.461223481700689,1.3968986382595354,4.869153207580559,2.9150578633644453,6.473323787516095,3.877327265981195,30.125629563386674,0.264703363452504,1.2817455015891954,0.021087154690582408,0.02739279004073286,0.0020920959463010882,0.004554779402827728,0.000293061070745042,0.0017484104667958925,0.0003233526101130222,0.0009168676870780153,0.00029807989488092964,0.0009837322280828674,0.000219924693581272,0.0005428839433606733,9.830310957369724e-05,0.00027732035852540544,3.2341994467805136e-05,0.00010729890392690651,5.544850509625595e-05,0.0001621468757334164,5.280967319420122e-05,0.00014429881903293783,3.1887622730996274e-05,0.00017287493322707515,3.6768752316238004e-05,0.00021681401089016964,4.142842006759218e-05,0.0001029091029924776,2.471789587928903e-05,0.00025808257002289474,2.3090365197458687e-05,6.916050172586622e-05,1.641213445081382e-05,6.148049204551116e-05,7.23416336896529e-06,6.829954672474098e-05,1.1964179218281326e-05,5.376605581683167e-05,1.3706447258969432e-05,5.4605692679163976e-05,2.0910418415266022e-05,3.480076522520241e-05,7.145420279233197e-06,3.5228447258806904e-05,5.19286881060281e-06,3.242305858401997e-05,2.9487614879765182e-06,3.28507792765075e-05,1.1443621441836433e-05,4.9170808008558904e-05,3.256451409632383e-05,6.19667535289068e-05,1.1589782128111205e-05,2.029708679482393e-05,6.249413021396072e-06,5.837020953780415e-05,3.0614541226738715e-06,3.5015368810044013e-06,2.1297220218790896e-06
86.8511373751353,28582.66649573754,7947.323286397598,42.3574477424458,18.26306630548823,64.29815210617201,251.22136544724557,56.3963272668874,235.25839554172902,4.312835451572675,49.01787890549774,14.090680724816755,46.614360247549804,11.621702068088753,47.400068010829315,2.445631636303989,9.907336748273122,1.836884192564243,3.161673606834206,2.1805526741847774,9.40862815162788,1.6359908510255825,5.677091621571264,3.3540592061559003,7.296172999618936,4.4368394531419595,34.79352177583671,0.34118835246734475,1.5276149681081466,0.024616973128061267,0.031894668398801,0.0024098901828721866,0.005220687662404244,0.000334396092101781,0.0019956401695739516,0.00036909149235556484,0.0010516111520680257,0.00034239932439565,0.001133526708528311,0.0002534915834016118,0.0006279390446994791,0.00011387183933643966,0.00032214514564115303,3.761766828541129e-05,0.00012498341788075624,6.458061810663281e-05,0.00018825862823671874,6.136974435670056e-05,0.0001663244916029741,3.66893005957538e-05,0.00019825516002901239,4.2098554919425605e-05,0.0002468188718499458,4.7354502987852596e-05,0.00011728013662172503,2.8193210643130237e-05,0.00029383746733899614,2.6313068831988063e-05,7.890575047238444e-05,1.8760397257617108e-05,7.032892431969547e-05,8.279143834449916e-06,7.825735486381178e-05,1.373939155760404e-05,6.178675169895618e-05,1.5741357935379775e-05,6.27561371556733e-05,2.397657673065735e-05,3.988933537751989e-05,8.192047880379366e-06,4.041493440178272e-05,5.9390062731551125e-06,3.708601107602031e-05,3.356449548018302e-06,3.733004834203526e-05,1.2946589189975405e-05,5.56362965701183e-05,3.677449201060641e-05,6.999489314451319e-05,1.3081646310786915e-05,2.2916998592641745e-05,7.052893654940531e-06,6.579808611147769e-05,3.4498805068360935e-06,3.9503866840986055e-06,2.397717372550289e-06
109.85411419875584,34071.109273184404,9187.089810482252,48.19668197915694,22.32741255540779,76.61390854209424,289.3692871605968,67.00199213754817,267.4800074042417,5.3018255017724965,55.24205565976804,15.63167837846567,54.29061714437026,13.113098537071586,52.67010010240294,2.845023541980653,11.1496168427149,2.206165276590172,3.8162378658003027,2.6473250299820728,10.196384678483497,1.8792960907336371,6.561174848592144,3.798215173333915,8.134492469152361,4.957763939688331,39.45645675559805,0.4264989529735826,1.782021909734007,0.027512324695509117,0.03569531685699434,0.002704219932519034,0.005890537034475421,0.00037847513155519303,0.002261138702845352,0.00041923922130641326,0.0011892316089183327,0.0003873872001250286,0.0012799306070072768,0.000286958277303306,0.000709055551326385,0.0001286650663057802,0.0003626192263220646,4.242796483409168e-05,0.00014033756179009007,7.252095933883105e-05,0.00021085581257114825,6.881962530418874e-05,0.00018575992058616347,4.099896768493226e-05,0.00022203502052945746,4.725435688928324e-05,0.0002755975546012056,5.311904697353965e-05,0.00013112675667323827,3.154333952550968e-05,0.00032729011990582094,2.9331427969734356e-05,8.810397611584522e-05,2.099183471967865e-05,7.836037157187346e-05,9.274184736330464e-06,8.784556793071199e-05,1.52703125727486e-05,6.871550609246452e-05,1.7385158625354355e-05,6.935473456780884e-05,2.646904963767739e-05,4.404026218282866e-05,9.037979645989796e-06,4.4615565913556365e-05,6.549295849957631e-06,4.091782817177283e-05,3.7004537927345043e-06,4.1174249287842704e-05,1.4280556192938435e-05,6.137765259202758e-05,4.0592771568634335e-05,7.731528433918199e-05,1.4505527493836345e-05,2.543138898883115e-05,7.80162406490005e-06,7.257462513870485e-05,3.799509794772893e-06,4.258893839247321e-06,2.5902227765901688e-06
138.94954943731375,39523.2335920126,10292.070641550676,53.7795308887127,25.942260354258757,87.98171562032569,320.50379662082224,77.12494805956447,297.0211700827422,6.286496918066151,60.3497515998363,16.816454432664035,61.07545252177454,14.47600600337206,57.430559220182424,3.1981202308946846,12.200179197339734,2.5727658209705573,4.521739363496531,3.149032951305747,10.853562419807238,2.1082149693703625,7.3156799383522415,4.129312586829531,8.694374397342873,5.343934171778838,43.11809899636976,0.5181795566196671,1.9992159858387648,0.030480701627065277,0.03963272698782804,0.002995111869204288,0.006490139187674421,0.0004163658672283708,0.0024709643602407625,0.0004596081408975427,0.0012976322539638287,0.00042303707296210925,0.001397955310647359,0.0003138272475220229,0.0007753188425593099,0.00014076796430280737,0.0003963601015512631,4.642240521393703e-05,0.00015396131366047415,7.968475873508345e-05,0.00023160880466190282,7.564589305188125e-05,0.00020345597907686899,4.4860060044109876e-05,0.00024122920325350957,5.1047255787208405e-05,0.00029646840449565077,5.731062348252584e-05,0.0001411021054662546,3.397012280801515e-05,0.0003521115872599542,3.157739772819423e-05,9.491706397342924e-05,2.264016348924394e-05,8.446281385196423e-05,1.0013782449538416e-05,9.498053516070793e-05,1.647924755493251e-05,7.419992102464213e-05,1.8775979206477522e-05,7.493979802452168e-05,2.8681291577114313e-05,4.765884031149789e-05,9.77693746070002e-06,4.829034678947492e-05,7.056541246081798e-06,4.4070624899715724e-05,3.973348616965436e-06,4.4153975471819994e-05,1.528166549064455e-05,6.564851921003673e-05,4.318989338877309e-05,8.223406647310435e-05,1.5342368939287717e-05,2.6886186566668174e-05,8.247799924274566e-06,7.693050878733145e-05,4.031022206195966e-06,4.535289396350216e-06,2.748150294452916e-06
175.7510624854793,44634.54596869117,11162.428478323658,57.42475818445628,29.256961528284535,98.34667030086403,345.2879163207151,86.78308002315224,319.7163827472237,7.259533480739863,64.12608927029555,17.62897695489413,66.8382709368523,15.469287507956988,60.624739244134624,3.527099402656949,13.121196483677013,2.9454358281503605,5.122352854411662,3.6330648885076546,11.327197643654996,2.27272403560044,7.945190009950493,4.445071739579653,9.20647301254247,5.726279256036911,46.89168543500899,0.6190923350001931,2.2254571586273153,0.03283115124285944,0.04263672827708144,0.003200723732749862,0.006925563155951126,0.0004439391299479884,0.002644199907922888,0.0004915997949928327,0.0013897946719135584,0.0004534005921602484,0.0014980672592673598,0.0003367454680922371,0.0008310351566529511,0.0001509610142607958,0.0004242918192514848,4.977860295288996e-05,0.00016371740895865158,8.45953263827283e-05,0.00024481209563308794,8.002950709831175e-05,0.0002145488711028403,4.731250765693333e-05,0.0002541287129941506,5.378224880909809e-05,0.00031275071682012446,6.04730755384707e-05,0.00014893734845604147,3.587932658163405e-05,0.000369543424054612,3.315828602566677e-05,9.984088347630712e-05,2.3871740566220254e-05,8.879179193437658e-05,1.0567696915068973e-05,0.00010047905980950419,1.7287566077196744e-05,7.788001502513633e-05,1.9533733538678503e-05,7.801166262895466e-05,2.9655921646930862e-05,4.929527861315955e-05,1.0127393111014735e-05,5.0046088985499025e-05,7.328018161578422e-06,4.578253948481435e-05,4.131282702112269e-06,4.5956010435047796e-05,1.5909525709849916e-05,6.838727180612637e-05,4.508451981933019e-05,8.596311933185915e-05,1.603519798796405e-05,2.8108552835013542e-05,8.611396439610751e-06,7.995306537601673e-05,4.183562294825942e-06,4.659089959403146e-06,2.8246045992390343e-06
222.29964825261956,49661.72039633069,11764.0869343122,59.79374918358838,32.12295753104329,106.20325151933883,362.84652142383743,93.33185844260527,334.3584869614107,8.046923517340403,66.1577847226045,18.15938311469569,71.53850787280003,16.434922905831396,63.68839588700214,3.7776235333702477,13.786651210945136,3.2183465953456096,5.720185751108699,4.020342813277422,11.399466300292907,2.426483847040194,8.45603948006011,4.626882388309407,9.434784318343192,5.902763284194181,49.20873920758382,0.7111172851025138,2.3841416887689864,0.03426864611637949,0.04454107684003282,0.0033567763871719405,0.007247313434268905,0.0004643029864655059,0.002733696277691699,0.000510902720047556,0.0014322290277176456,0.0004675366336676914,0.0015444269303991698,0.00034756012526975167,0.0008578330335288262,0.0001559269791396838,0.00043773855979673654,5.142279248809319e-05,0.00016886696719190235,8.731124757820818e-05,0.000252746451549974,8.268992465605555e-05,0.00022179680799452848,4.88177517253305e-05,0.0002606991173090562,5.497433634761175e-05,0.00031547056332069916,6.148678804734358e-05,0.00015057505977940816,3.6287611748727765e-05,0.0003747904071854657,3.364980362515085e-05,0.00010133159635641058,2.4237281488202927e-05,9.027614136551383e-05,1.0743193656061045e-05,0.00010214203972070575,1.761007245692395e-05,7.937108899147376e-05,1.9972075899550802e-05,7.979399670093142e-05,3.0304933837561962e-05,5.0355940493273716e-05,1.0324722354504711e-05,5.104456993260109e-05,7.441855369541652e-06,4.6487314771304945e-05,4.184488786233244e-06,4.6497607464022056e-05,1.607347594268982e-05,6.904279806034338e-05,4.5320570772744186e-05,8.641543486813508e-05,1.6136573581547485e-05,2.8303083601073577e-05,8.674798438049843e-06,8.056776944561266e-05,4.216637723751828e-06,4.676631861290813e-06,2.8330279620419305e-06
281.1768697974231,52822.82354566281,12231.752374222868,60.809877683203304,33.753154669343346,110.89759171572605,368.0432498848648,98.03616709179607,340.0363519830282,8.799777734019273,67.31093703286787,18.340279519960202,74.97659863770949,16.75887458173351,64.62683557489136,3.8959806426087127,13.972258572909377,3.46133424016335,6.142910462390133,4.376833373814859,11.415787220619263,2.4874502135264356,8.641229870170216,4.658727604519565,9.365625550601946,5.945330438374754,50.295173893918005,0.7971260894364935,2.4814144832909317,0.03506614730486306,0.045560078760955414,0.0033869656418757887,0.007299548487082094,0.00046739935782116594,0.0027490510236244854,0.0005142055240152676,0.0014428313972079264,0.0004715724047180223,0.0015648453851601822,0.00035173930139757693,0.0008684258142182406,0.00015784500047630502,0.0004414273096124976,5.196563920222897e-05,0.00016936995331502853,8.75322867591054e-05,0.000251796840583228,8.243304365195045e-05,0.00021959117253147364,4.840826280688664e-05,0.0002589534951961022,5.466914880770898e-05,0.00031415227026900563,6.137025469609324e-05,0.00014977863400357792,3.612127200835879e-05,0.0003707203249775145,3.3301444409775105e-05,0.00010043914921771587,2.4072044202301856e-05,8.938128371281151e-05,1.0676142192414013e-05,0.00010171211976235217,1.7412747834956357e-05,7.85165534805742e-05,1.961801351602649e-05,7.841346142063629e-05,2.9832472015676245e-05,4.958506495407885e-05,1.0169473230095275e-05,5.02976893237871e-05,7.334501694180281e-06,4.583413292814874e-05,4.125492749853689e-06,4.586911663597849e-05,1.5853821276029733e-05,6.8090071124239e-05,4.470758374910023e-05,8.5150210489262e-05,1.587780132640826e-05,2.7851694314569043e-05,8.52290640781704e-06,7.917771204611999e-05,4.149122820001681e-06,4.612361441480637e-06,2.7946785284582924e-06
355.6480306223129,54401.22194245607,12093.367522238941,59.437919751132,34.37269038817038,111.8083736370179,363.5698529703761,99.04108552497026,340.155632473251,9.283614209755694,66.79092258961977,17.82748631330776,75.36280935233422,16.820020542384455,64.30023631481626,3.949064987190854,14.055433650402286,3.5741439205725993,6.339010540136826,4.538548552440435,11.023655458842448,2.4701879589716667,8.602000852126638,4.568030088506455,9.076725699656496,5.775707663647115,49.966292517821465,0.8537064367135202,2.503243859528471,0.034485443238664495,0.04483236140846423,0.003328485083028628,0.007200491199870304,0.000460249600530518,0.0026791825783597126,0.0005030116870727963,0.00139730680189973,0.00045662454446816504,0.0015070924094045493,0.0003400192639270848,0.0008375985619861856,0.0001523399630528686,0.0004274015046756993,5.033696428044616e-05,0.00016439534257662222,8.504884150535207e-05,0.00024512226845201926,8.03007880409577e-05,0.00021329091654868183,4.693447153600034e-05,0.0002498024056619,5.2579423530565144e-05,0.00030097800027300485,5.8777531843709985e-05,0.0001436334896322775,3.465751255173544e-05,0.00035580298587388395,3.1978339834150306e-05,9.649820550392736e-05,2.3143612981278714e-05,8.591282845021338e-05,1.0273424486618212e-05,9.792931845578124e-05,1.6764460459721483e-05,7.562721814501433e-05,1.8859082759272627e-05,7.542008882080587e-05,2.8610635407632562e-05,4.7531929228619306e-05,9.746889499090886e-06,4.822829265614999e-05,7.046556530820551e-06,4.405545327509434e-05,3.969170469103663e-06,4.412820140337469e-05,1.526228148797712e-05,6.557490826982279e-05,4.3047801586753825e-05,8.20403405993076e-05,1.529828408640389e-05,2.6836578175814675e-05,8.215448484939455e-06,7.620110152842167e-05,3.988110170270957e-06,4.412508483593595e-06,2.679830496537039e-06
449.84326689694444,54458.36726726385,11571.148710167598,56.50077406812822,33.66540546410117,109.86829973277014,350.14298071269513,98.5910608708283,331.2380503594078,9.416727959588625,63.94347483305931,17.150352226229668,74.89947523913199,16.353943901020795,62.497264459527734,3.8207267239054645,13.572656063167136,3.5395405088908483,6.313932621326441,4.538210595066672,10.344040817369956,2.3584518955249076,8.149145114368991,4.281852032305964,8.421345528865025,5.4235136579492185,47.82078725464634,0.8825966467127349,2.427696499957103,0.033078975606901366,0.04293889158749686,0.0031465141634209382,0.006745581436452692,0.00043203733872526027,0.002523907491521952,0.000473933316826991,0.0013220310462385278,0.00043238356051090266,0.0014275205338284123,0.0003223900085287676,0.0007937027479338806,0.0001444193136312262,0.0004030340019158908,4.7547113695293324e-05,0.00015431516176847546,7.978636136563284e-05,0.00022882255835693653,7.501224362210944e-05,0.00019920815489330476,4.387741636744791e-05,0.00023344809808037103,4.912948624531608e-05,0.0002797247034106706,5.490839279810333e-05,0.00013359530838854376,3.2253739390376756e-05,0.00033187175942917614,2.984343533216823e-05,9.008088388194034e-05,2.1604591004640963e-05,8.033445025678806e-05,9.601113426064993e-06,9.14789707324027e-05,1.5688759184729018e-05,7.080819648640236e-05,1.7663119978093433e-05,7.067085174064859e-05,2.6800583467071808e-05,4.4548685112289994e-05,9.139411922028827e-06,4.524288306747199e-05,6.5839761343903865e-06,4.1160771276458565e-05,3.7033933330544713e-06,4.115329767873337e-05,1.422588067926326e-05,6.112269822190183e-05,4.0082524521701484e-05,7.63670457704119e-05,1.4239160509752867e-05,2.4990844869857478e-05,7.663764620999565e-06,7.117834067938453e-05,3.7294382828593246e-06,4.127573764486294e-06,2.4998190315667314e-06
568.9866029018299,53690.76495886056,10792.731412304116,51.98521716906742,32.11852128375423,103.86432674008657,329.05648035015145,93.40427798866443,309.5528866707526,9.276070435758742,60.10904352537007,15.775766528933437,71.08598588538354,15.255681176149333,58.34610831756976,3.572977884253706,12.711102461302449,3.378439722316408,5.952835517434749,4.295564782352576,9.384980205448176,2.1508855682540697,7.460473377750359,3.8722628744467187,7.565122099432224,4.906993694440155,44.2299750231521,0.8663970637109708,2.2716320101428873,0.03013437735169363,0.03920601856511398,0.0028819258309469545,0.006186210531777636,0.0003951037021123344,0.0022866031380481488,0.0004308745549754887,0.0011916672155385657,0.00039008264039106655,0.0012897802241904814,0.00029149798816467513,0.0007183636213304388,0.00013080450882885605,0.0003652799310522348,4.312303630565486e-05,0.0001399484941494836,7.241588509656308e-05,0.0002075383311028187,6.808009517661224e-05,0.00017980448733739688,3.965264658922827e-05,0.00021137299712123596,4.45087476787574e-05,0.0002532185359045758,4.9770058964866484e-05,0.00012106733584650973,2.9246647987168088e-05,0.0002994208525941438,2.6939231560200536e-05,8.141494923301926e-05,1.9565109397420715e-05,7.259361063293136e-05,8.702328376647442e-06,8.31001303555456e-05,1.4175639964430587e-05,6.401119596824185e-05,1.5923239434330662e-05,6.374138702369641e-05,2.4161454833364946e-05,4.0244584131087016e-05,8.264266494016908e-06,4.092703095970445e-05,5.96680305546085e-06,3.73206529024437e-05,3.3623930731432413e-06,3.741464508040267e-05,1.2939023078921669e-05,5.5605333477338815e-05,3.643190046986356e-05,6.945679050427854e-05,1.2943621732999944e-05,2.2727652112422653e-05,6.947308557327369e-06,6.438029069737683e-05,3.3685160531314063e-06,3.712369523859048e-06,2.245846782279691e-06
719.6856730011522,51130.3527498967,9524.483592066856,46.45756414900159,28.723345992823706,93.22287230100197,293.6892030928637,85.49126860844892,283.5216383870954,8.630350392570119,53.83500819709847,13.973273816636164,64.82627510916072,13.769979160066939,52.81524133519296,3.158195487209625,11.400132813859758,3.0452138051684394,5.362385358613344,3.862435349726584,8.158228441544079,1.8745979003555164,6.416728004767353,3.3177347022449952,6.437903236381602,4.259718064903701,39.07805785281022,0.8152948785686239,2.028836628803529,0.02665008172782098,0.03462282838481388,0.002516213798727933,0.005397051108619391,0.00034489025958735437,0.001996018973803353,0.00037655751955183555,0.0010395182877244147,0.00034034872529022016,0.0011243621234161305,0.00025443726047897974,0.0006265869972011077,0.0001141357575745692,0.0003189933572281124,3.76462605171292e-05,0.0001224707830324759,6.338322508199673e-05,0.00018174919823789622,5.9665748343802445e-05,0.00015755443665575207,3.466581256352711e-05,0.00018417072424057473,3.872488182033288e-05,0.00022012022244659478,4.3261434674139474e-05,0.00010541564407531971,2.5481755373503956e-05,0.0002614731606595066,2.353739663481681e-05,7.11501801686203e-05,1.710972835700975e-05,6.353011650778779e-05,7.617836499760086e-06,7.272920930641382e-05,1.2448659576842882e-05,5.624234632085354e-05,1.3971477190601741e-05,5.595743789968204e-05,2.1194636680405148e-05,3.521703713921918e-05,7.226791904077922e-06,3.580946831645399e-05,5.202905206840379e-06,3.254624398996472e-05,2.9266692816307864e-06,3.255185472070142e-05,1.1260388980096115e-05,4.837989936341142e-05,3.163299928219232e-05,6.030961429444331e-05,1.1245264857736967e-05,1.9749112712760722e-05,6.038837616781304e-06,5.5891883591563066e-05,2.9235488022289406e-06,3.1777191539426185e-06,1.919825868238714e-06
910.2981779915218,46819.33883125398,8120.872287403068,39.20378486725226,24.824029645526526,80.88461095947723,256.5892461770106,74.6664426157044,246.36638764475154,7.679798825090155,46.46523246043895,11.79748630891946,56.552664527024774,11.763543878316362,45.33509080355014,2.6663013851725736,9.777408933899071,2.619279279097288,4.537348028164997,3.280724261610844,6.810766251324503,1.549190816100044,5.3214144388368245,2.722756993505995,5.276493378248545,3.535785987138374,33.09497728044386,0.7213971785605306,1.735858760851355,0.022430137850651944,0.0291786425489845,0.0021178109890172417,0.0045242803412912065,0.0002889722087173811,0.0016761437391267556,0.00031672318452481566,0.000874440377129179,0.000286546817517658,0.000946738061874019,0.00021451247550183028,0.0005284634062978998,9.634167050445287e-05,0.0002685062314228246,3.178243677046414e-05,0.00010280416233913728,5.322676510764806e-05,0.0001523764154312735,5.006527641426141e-05,0.00013228403732670966,2.915792005002389e-05,0.00015519424077804647,3.267451534850475e-05,0.00018479064044994348,3.650254073641028e-05,8.853613352002302e-05,2.1414669710227723e-05,0.00021868582242324947,1.9697642626398785e-05,5.963676615570357e-05,1.4362855613534383e-05,5.322932434725366e-05,6.400738313727136e-06,6.124596360143556e-05,1.0423793465929955e-05,4.711807957712474e-05,1.1676685401876412e-05,4.6790421470410057e-05,1.77301947599695e-05,2.9470961872253478e-05,6.044884349844763e-06,2.9965285884871266e-05,4.347527933502503e-06,2.720068537527146e-05,2.440882491611098e-06,2.7114247122943164e-05,9.354408879329638e-06,4.017038849648222e-05,2.6229891159435277e-05,5.000781048130922e-05,9.306845812509358e-06,1.634539738004326e-05,4.984193387978796e-06,4.606213299823533e-05,2.4099103514006673e-06,2.5952048905274507e-06,1.565822246283277e-06
1151.3953993264481,42232.86474789667,6628.941739580984,32.29082672716423,20.228586172477836,65.99883023693477,212.2028274764469,61.57632172304832,205.95817773038863,6.403469352142485,37.87485817491306,9.469437661552131,46.847497807184475,9.658650991528082,37.537468458645044,2.1353099736048256,8.010109309998395,2.114307788721981,3.652987777922098,2.630596682713796,5.417929006230859,1.2169472550117804,4.1466168199622695,2.122723938437948,4.111778713492844,2.8184111674760244,26.800484762109146,0.609483567380113,1.4198874300960458,0.018088183692481746,0.02358651824378938,0.0017136843950555016,0.003661780357216076,0.0002340139151172937,0.0013480310254816072,0.0002552699397561783,0.0007023342952075406,0.00023026806600639596,0.0007614699879993232,0.00017264579198024858,0.0004260511403314646,7.776348720976615e-05,0.00021727764796521923,2.5719040830994505e-05,8.350189438717015e-05,4.3271791229469794e-05,0.00012369255722626565,4.0664208096560155e-05,0.0001069541827178744,2.3543387030325945e-05,0.00012484195900811106,2.627116306518116e-05,0.00014819940835607281,2.9299403531037837e-05,7.103798953428554e-05,1.7189585561938836e-05,0.00017530306776463936,1.5801393983537286e-05,4.7867706302600446e-05,1.15402145923212e-05,4.273107675589948e-05,5.146857824908735e-06,4.9303960028624846e-05,8.348594626009503e-06,3.775584310538244e-05,9.306105229159115e-06,3.73059985160013e-05,1.4082932756801498e-05,2.3388252802390004e-05,4.793497874513924e-06,2.3774438651365766e-05,3.4450285575345364e-06,2.1547348389193368e-05,1.9289737931723193e-06,2.142139762348537e-05,7.383059730743443e-06,3.1706865229449323e-05,2.0665550739359258e-05,3.9401738725507467e-05,7.329176797372346e-06,1.2872564358987114e-05,3.919886611567281e-06,3.61641283689389e-05,1.8884441899313105e-06,2.0278601718926475e-06,1.223132911528503e-06
1456.3484775012444,36558.83036992186,5268.976908153035,25.184590821563877,15.572162191307228,51.44848936925434,168.17038581409145,48.568980341241804,162.573957928053,5.083139432226185,29.533210091424852,7.241419820045442,37.02637482619177,7.445843379609119,29.124816902866364,1.6292909678793428,6.256504152593422,1.6236810606043974,2.7813885238044316,1.9883843620651867,4.123896201466116,0.9101088094400516,3.0860114117489563,1.5818255068466982,3.06702468432287,2.158495194098142,20.856808030136147,0.49074024483901896,1.115330940941575,0.014094310413853303,0.018341513354502504,0.0013254745668601262,0.0028334485322379773,0.00018144744482997992,0.001049628601781806,0.00019870506154601042,0.0005469376115235958,0.00017942356773424236,0.0005934679660583112,0.000134691840352996,0.00033171364404257646,6.054185274019487e-05,0.00016860939712539237,1.9997982147561076e-05,6.458734432093516e-05,3.349625976904798e-05,9.556279027532373e-05,3.144196423823474e-05,8.261101644450201e-05,1.8183916322164286e-05,9.608431950157149e-05,2.0133678494201658e-05,0.00011274034116735029,2.2427979450560093e-05,5.4044130090326884e-05,1.3086254554550922e-05,0.00013298509412401535,1.1993058460687185e-05,3.6390809178058925e-05,8.793485955405963e-06,3.2457413380703486e-05,3.925762903673552e-06,3.763310372150826e-05,6.341378773395322e-06,2.869090592730382e-05,7.047771121255308e-06,2.8267175286102455e-05,1.0652803683956375e-05,1.7686417161327596e-05,3.6240557710554734e-06,1.798163210149747e-05,2.5963537368930295e-06,1.624261655018474e-05,1.4533515551710944e-06,1.6139926088735882e-05,5.5613546781107554e-06,2.388510817167466e-05,1.5557010311193926e-05,2.9667639063261764e-05,5.517500337249136e-06,9.692928803488384e-06,2.950264245649246e-06,2.7204008433145413e-05,1.4203893898433258e-06,1.5213159755034147e-06,9.173423380229824e-07
1842.0699693267163,30172.848107977137,3956.6587844319147,18.877521558731555,11.386667899566243,37.65424775167913,126.55923397541667,36.02036114471276,122.93348239570558,3.788219294421396,21.843251892399856,5.272771734499225,27.8462958028915,5.530005058620904,21.930882118290008,1.1791853084239254,4.659279559123771,1.1796485140329456,2.0187141921021414,1.4273010942277111,3.00822398846468,0.6508889320040651,2.2026583755555142,1.1281613988502657,2.1992743276968767,1.5848246411936397,15.566300312137134,0.37489871882871656,0.839534476071864,0.010528398413113543,0.01372843847746505,0.0009932935065333013,0.002118775289478468,0.00013540574970813765,0.0007798236818612415,0.00014781426232154038,0.00040563179704634537,0.0001331578807026093,0.00044070045891594163,0.00010010882797597914,0.00024680567685131025,4.5058583568469984e-05,0.00012530066722242107,1.487722816929052e-05,4.783102339160034e-05,2.478040871640655e-05,7.04853921190722e-05,2.3204674777471787e-05,6.0562275662236284e-05,1.3320817911390332e-05,7.015900784166738e-05,1.4681595475480102e-05,8.18212578787296e-05,1.633096554318708e-05,3.924600194564986e-05,9.507481720474348e-06,9.624690760491318e-05,8.6838563934613e-06,2.63670741011371e-05,6.377807066715947e-06,2.35260621080955e-05,2.8490972573733963e-06,2.737927647464626e-05,4.598755335480663e-06,2.081472233413538e-05,5.1057613183797435e-06,2.0486067588274536e-05,7.716157678276327e-06,1.2810960506298036e-05,2.6250758246731723e-06,1.302968390463891e-05,1.8799622184562833e-06,1.1763153414350545e-05,1.0520649226290247e-06,1.1683746635517753e-05,4.024968057600822e-06,1.7287650260048558e-05,1.1253029988248811e-05,2.146379378084513e-05,3.991107324943901e-06,7.012902523081142e-06,2.1336472888293115e-06,1.9664589563847673e-05,1.026629809193351e-06,1.0970317705505738e-06,6.613317084274022e-07
2329.951810515372,24122.642103362876,2922.7407788791957,13.384326242379444,7.867324290374585,26.470736679727434,91.01617421299022,25.56568505444829,88.34901468705333,2.713915872018209,15.542952391482807,3.662833571666444,19.97698069113475,3.906609996751558,15.678959558281662,0.8193278851393824,3.331389269358974,0.8183610640386546,1.3996514253050742,0.9781729414175422,2.112592564268444,0.44461182362936325,1.4968639151502714,0.7740705844685626,1.517245973335387,1.1284388677160884,11.244513915201544,0.27638086260662975,0.61115458647021,0.007577275392591751,0.009872830219301265,0.0007106763501308393,0.0015172456840477858,9.68930630385054e-05,0.0005538450012286545,0.00010540218896978961,0.000287510306698701,9.44071223264568e-05,0.0003119783488651994,7.096464800027096e-05,0.000174576909434449,3.188311223148733e-05,8.855695237635979e-05,1.0519559071435086e-05,3.368202463080344e-05,1.7447709060213834e-05,4.9526443914049474e-05,1.6313314751161757e-05,4.242277926454014e-05,9.320287674119635e-06,4.8985924283888724e-05,1.0246708233252392e-05,5.700144049774721e-05,1.1395954951626164e-05,2.7357852959453233e-05,6.6303032313858915e-06,6.705492654472584e-05,6.052493504737442e-06,1.8388259973389784e-05,4.451288020130747e-06,1.6412510275062538e-05,1.98985864013196e-06,1.9136345115488776e-05,3.2096951907679553e-06,1.4532658340629843e-05,3.560278598475929e-06,1.4289964231838937e-05,5.3797367532893695e-06,8.931936949771107e-06,1.8302503931258382e-06,9.087466910209736e-06,1.310306752928303e-06,8.200150126756988e-06,7.331037397129203e-07,8.141661581849234e-06,2.8041735642907047e-06,1.2044884407302498e-05,7.836074872879546e-06,1.494884854830155e-05,2.7792638060525406e-06,4.884449972590158e-06,1.4855231324876945e-06,1.368527897732388e-05,7.144019087776458e-07,7.618143865495693e-07,4.591437737795087e-07
2947.0517025518097,18060.169300901158,2052.442030334411,9.182851265436206,5.1638672935667005,17.404176740230575,62.41873100217031,17.165469144764643,61.37428061297409,1.8394046613537676,10.516170135174388,2.4481076379601667,13.777852232279098,2.6549900748098407,10.79132725582411,0.5480227440512261,2.2993290049489543,0.5434414270453414,0.9339830484695879,0.6387008347029096,1.4279376724394266,0.29402498048016784,0.985198273697979,0.5087069886018944,1.0056791140560384,0.7690338924506068,7.795774950538287,0.1937329295782352,0.42628680828724164,0.005241711191220962,0.00682859705209914,0.0004874368105562428,0.0010354169449293146,6.606878370424258e-05,0.00037565847636830387,7.162689609066423e-05,0.0001947123844911292,6.395982181049563e-05,0.00021126517822721606,4.810420935460133e-05,0.00011824688846661715,2.1598984262549426e-05,5.9798363150954836e-05,7.119846207868235e-06,2.2736306411973747e-05,1.1780498175410015e-05,3.341603634703126e-05,1.1011872420290947e-05,2.860127315296325e-05,6.2835076854059396e-06,3.29984089893264e-05,6.900004500945527e-06,3.832206803060563e-05,7.67277307339301e-06,1.8402727119720904e-05,4.461636789882728e-06,4.508325622125165e-05,4.070771795004065e-06,1.2374030038253144e-05,2.9974641341964183e-06,1.1047797575965504e-05,1.3407777417499013e-06,1.2902665354466553e-05,2.161423930649204e-06,9.789367554772065e-06,2.3955503677393353e-06,9.617989419468515e-06,3.61931400345824e-06,6.009168075672204e-06,1.231355510617864e-06,6.115609686164023e-06,8.812866794175098e-07,5.516101134163717e-06,4.929698493159451e-07,5.4748883017498364e-06,1.8853345703648906e-06,8.098559881548239e-06,5.26614281725273e-06,1.004769005004332e-05,1.8678008765962072e-06,3.2831324351769574e-06,9.981821832160162e-07,9.192142569752946e-06,4.798115582804908e-07,5.107174459367899e-07,3.077446380744635e-07
3727.5937203149415,13027.65204148892,1397.141227913583,5.945663352863585,3.259513276765251,11.128894207677966,41.436573924589226,11.080148029874959,40.61906676490267,1.2004659044234653,6.881395903828577,1.5848226470385298,9.19360734022885,1.746468606361318,7.233854725364842,0.3518196435685693,1.5283143516231081,0.3484944309539915,0.5974321738567665,0.4039698916147591,0.9408181167355952,0.1859112809856634,0.6199253463765474,0.3216166797804146,0.6416638652747677,0.5027815334427745,5.204409880251979,0.12982012405874738,0.28593858999623784,0.0034640927956369827,0.004512515715584356,0.0003200761935152157,0.0006785171852162163,4.324249439108627e-05,0.00024515601108178464,4.678908931403144e-05,0.0001270577958040305,4.175294786483386e-05,0.00013793157135049382,3.1425894046605606e-05,7.724817225258399e-05,1.4115007710461594e-05,3.9062012489694676e-05,4.653994679033099e-06,1.4847651779564277e-05,7.694711186542589e-06,2.181293516183078e-05,7.191122977424697e-06,1.8657483467862188e-05,4.098812902846482e-06,2.1510001879680008e-05,4.496342158546799e-06,2.4936931465072943e-05,4.9992782685961275e-06,1.1980765315001273e-05,2.9056107109202156e-06,2.9337843512657567e-05,2.6498927048237912e-06,8.058663265956623e-06,1.953292356214591e-06,7.196835048582928e-06,8.741852069430868e-07,8.417385929032812e-06,1.4085098507516315e-06,6.381036960571588e-06,1.5599611091331813e-06,6.264813246584736e-06,2.3565992960125594e-06,3.912702089297818e-06,8.017697786301426e-07,3.983037282127754e-06,5.736806799277986e-07,3.591233573622157e-06,3.2084496170044405e-07,3.56333521685022e-06,1.226875892771102e-06,5.27034555836225e-06,3.4256135806646604e-06,6.536855215335642e-06,1.2150173821004572e-06,2.136009253983444e-06,6.492322768556113e-07,5.976677506496454e-06,3.119489356015688e-07,3.315090173071113e-07,1.9972206492791436e-07
4714.866363457395,8994.38843355249,910.3563690173044,3.7485349246830872,1.9592391436722307,6.80332280075428,26.293995118373715,6.890887932250681,26.06395647406603,0.7627487555689824,4.385623245972059,0.9899262800830607,5.925728005308527,1.1170826271148808,4.704417394467852,0.22051128703964837,0.9933398157743035,0.21492057265525844,0.3675665451281239,0.24437509411947095,0.5968455305787624,0.11279701988082819,0.3724113476976627,0.1938640753703853,0.3910986080999125,0.31557152030359403,3.3300098381443797,0.08330162178648735,0.18358438925200685,0.002203560074062639,0.0028674889478467304,0.0002030848068767335,0.00043032204767022363,2.7424299282179067e-05,0.00015530471137941752,2.9665392289070007e-05,8.048362593454745e-05,2.6457119527330597e-05,8.741125940274914e-05,1.992620384171909e-05,4.898011162912459e-05,8.952455232397024e-06,2.4766102911057026e-05,2.952434082493542e-06,9.411310916327708e-06,4.878241806318388e-06,1.3821394916319602e-05,4.558134759796675e-06,1.1815110880581942e-05,2.595569489117131e-06,1.3612798201958576e-05,2.8447705320311684e-06,1.575786423360295e-05,3.162627681833814e-06,7.573900539628402e-06,1.8373604264631932e-06,1.8539535095164853e-05,1.6750166637179287e-06,5.095977619160724e-06,1.2358288441422853e-06,4.55202465034471e-06,5.533456729081095e-07,5.330748018416846e-06,8.911617709545954e-07,4.038207909275261e-06,9.863715000174512e-07,3.962183044407248e-06,1.4899450853290546e-06,2.4737953867442365e-06,5.069206947316298e-07,2.5188264707106827e-06,3.6262877824186044e-07,2.270317517430358e-06,2.0277749623714216e-07,2.252096650974681e-06,7.753019180933601e-07,3.330626733538875e-06,2.164034709775381e-06,4.129945598713596e-06,7.675628137992341e-07,1.3495491193771625e-06,4.1008916519093444e-07,3.7740713816098805e-06,1.9697357963368807e-07,2.0903346490922283e-07,1.2591505834486176e-07
5963.623316594643,6097.467133875341,570.4989219615117,2.2849293719470007,1.1459233491706855,4.049162884853654,16.263226921232214,4.1747974704205575,16.394269144200884,0.47106177236798347,2.7165763129339213,0.607600340627657,3.7442499099819764,0.6929967098296916,2.9751919189395792,0.1332191114631481,0.6230025975881192,0.12784360078693677,0.21638092522588157,0.14217224722571167,0.3655983868499711,0.06574813932637602,0.2153987581510531,0.11272917149140217,0.2297654350497919,0.191615560088977,2.0616927145965285,0.0516948289560891,0.11395062682819346,0.0013631091027993326,0.0017741431412230703,0.0001254873259200855,0.00026579810273059343,1.6938974933249355e-05,9.583479046824384e-05,1.8318912582486727e-05,4.9661016746236604e-05,1.632970158027835e-05,5.3956556853798915e-05,1.230555396214742e-05,3.0247652618835502e-05,5.529996916401586e-06,1.5293449064562402e-05,1.8240757265320782e-06,5.810358935401765e-06,3.0121971436507534e-06,8.530466186973517e-06,2.8140931732910143e-06,7.288562076125678e-06,1.6011353012895098e-06,8.392930593353082e-06,1.7535238345017504e-06,9.702989372255563e-06,1.9492731752500974e-06,4.665331949792104e-06,1.1320391181398233e-06,1.1416184486380557e-05,1.0316779543225333e-06,3.1397940104491863e-06,7.617734259972132e-07,2.805190312413476e-06,3.4122160175671416e-07,3.288627497650297e-06,5.493240583307642e-07,2.489697485975579e-06,6.076894562427473e-07,2.441522177448221e-06,9.178580862248184e-07,1.523951306774602e-06,3.122843751612948e-07,1.5519871746645153e-06,2.233511685744996e-07,1.3984803827791996e-06,1.2487864313854247e-07,1.3869491539255255e-06,4.774114291953174e-07,2.0509839180617634e-06,1.3321788971450973e-06,2.5426430504472255e-06,4.7251679655367364e-07,8.308795010746526e-07,2.524272427846026e-07,2.3225137872378273e-06,1.212088889915572e-07,1.2847732325148215e-07,7.738007193610528e-08
7543.120063354623,4028.843096676825,348.7219922835741,1.3668383352487423,0.6539744385830504,2.347100005795789,9.854773152385638,2.457008701457485,10.092863051183178,0.2835329274644657,1.6471050399066554,0.36137359818244547,2.295088507100816,0.41704719955609576,1.8314050740295287,0.07754517722272893,0.37839173305218615,0.07302116241602206,0.12325496211329844,0.07958060701852235,0.21626724239386613,0.037128966902919634,0.12103484212549906,0.06390783994233713,0.1316615294477911,0.11359396247768905,1.2470217685990757,0.03128245356010281,0.06904132094068914,0.0008238828348359331,0.0010724871843817497,7.577496989290869e-05,0.0001604495977252838,1.0225117941524571e-05,5.7803663902154276e-05,1.1055917394844907e-05,2.995174940334585e-05,9.851279628408303e-06,3.255316893960016e-05,7.427098798497897e-06,1.8256000720639375e-05,3.3383552105905726e-06,9.229947882067292e-06,1.101331735778985e-06,3.5060358752758958e-06,1.8178311128506214e-06,5.146061221633579e-06,1.6980507678056113e-06,4.395015966008686e-06,9.654711767075325e-07,5.058608393454405e-06,1.0566791620212173e-06,5.841866377190402e-06,1.1745487659354582e-06,2.8096976085103325e-06,6.819088430605816e-07,6.873513798369138e-06,6.212823215234571e-07,1.891349041814674e-06,4.5905021247179714e-07,1.6900661278250962e-06,2.0569152542492915e-07,1.9831353315508226e-06,3.3102948423016384e-07,1.5005719650666004e-06,3.6603670940037907e-07,1.4708728082782014e-06,5.528258416563451e-07,9.178792160236221e-07,1.8809065616225963e-07,9.349148279114486e-07,1.345035640912141e-07,8.422465407333916e-07,7.519436439650148e-08,8.351454055222899e-07,2.8744228620316977e-07,1.2349014907075742e-06,8.018918238166107e-07,1.5306469865839473e-06,2.8442968690446034e-07,5.001892400786293e-07,1.5193424396992832e-07,1.3976057363201651e-06,7.293615725990311e-08,7.723241770746928e-08,4.651059876326723e-08
9540.954763499944,2639.6717408096656,207.12513143253787,0.8046629527511837,0.3679347488870693,1.3435588295731231,5.88722698895942,1.4294608436843526,6.079224901980523,0.1658181217527362,0.9728663940820416,0.20786368376990028,1.359642585773316,0.24240018735348645,1.0876751576671946,0.04373622091054493,0.22265185221304423,0.04052144603813892,0.06864998297852934,0.04332362631628149,0.12467753433456391,0.020505440562120402,0.06651307445602295,0.03545412866847989,0.07385350088722517,0.06597484073186562,0.7393471018247761,0.018531045709461878,0.04097807479340064,0.00048817568313661074,0.0006355652388655587,4.486362015811927e-05,9.497088505369134e-05,6.0522329444942746e-06,3.419093762600394e-05,6.542899150878644e-06,1.771563152458462e-05,5.8279679861952916e-06,1.9259570570134105e-05,4.395557043272365e-06,1.080430592069222e-05,1.9760689346516015e-06,5.4622788090011485e-06,6.519950570786641e-07,2.074548471443543e-06,1.0757419803125496e-06,3.044314623384239e-06,1.0047476411589172e-06,2.599089820608174e-06,5.709446969202834e-07,2.9903606938745283e-06,6.245451984734187e-07,3.4502481227187717e-06,6.941680006780605e-07,1.6598466229825878e-06,4.0290996402577037e-07,4.059638327004123e-06,3.67003616205556e-07,1.1175273694660718e-06,2.713211581944546e-07,9.98732511799898e-07,1.216077400942795e-07,1.1728141380320687e-06,1.9565594235596728e-07,8.870399815774467e-07,2.1626583527132127e-07,8.691563038238689e-07,3.266078430889314e-07,5.422819065046045e-07,1.1112427995159669e-07,5.524200201170179e-07,7.945398100311272e-08,4.975681111156651e-07,4.4414712215481594e-08,4.932958758003037e-07,1.697693850132986e-07,7.29375775910871e-07,4.735184616361276e-07,9.039135444186853e-07,1.6795772001079458e-07,2.9538703359451314e-07,8.971165977002256e-08,8.250870320037485e-07,4.3056954165795435e-08,4.555507591912712e-08,2.743131729146385e-08
12067.926406393288,1677.1050787291563,121.73806786867502,0.4644874568259114,0.20191151423222853,0.7495431005554222,3.4366444884392697,0.8094933310801329,3.555792278423992,0.09385437704069594,0.5554175354706852,0.11624155107322409,0.7838786182330547,0.137637386403016,0.6306999080667,0.024142601514013113,0.12826221732962553,0.0220558406440076,0.03752483925386848,0.023124082144459403,0.07061416665392245,0.011114486081716399,0.03587348342403754,0.019313375737631963,0.0406878790322332,0.03766095966564679,0.4310133746061091,0.010783551738751812,0.023903412565954126,0.00028444626579057823,0.00037036646366854313,2.612371609549668e-05,5.528842115775182e-05,3.52334909130549e-06,1.9893432642881885e-05,3.808473068535113e-06,1.0307135606814545e-05,3.3913530728111203e-06,1.120794938152059e-05,2.5586485781611635e-06,6.289130594307242e-06,1.1504312062394072e-06,3.1794652714599136e-06,3.7962060691787966e-07,1.2073908322127622e-06,6.261401037660308e-07,1.7714848582375983e-06,5.847639940725281e-07,1.5119646610967044e-06,3.321309621459772e-07,1.7390194653338311e-06,3.6314944229675954e-07,2.004958404352325e-06,4.036119952753624e-07,9.647482144580697e-07,2.3421494147405055e-07,2.359122585209335e-06,2.1330147897744296e-07,6.496341009053123e-07,1.5776393838085682e-07,5.806420440395117e-07,7.072703950310723e-08,6.822803530475252e-07,1.1376779452398392e-07,5.158445320914678e-07,1.2571271334809002e-07,5.052870267270108e-07,1.898442227430373e-07,3.1520775878751686e-07,6.459257299140806e-08,3.211358208799499e-07,4.617847028612298e-08,2.892029344711235e-07,2.581175508829311e-08,2.866826799163117e-07,9.86558525028688e-08,4.2386097844035616e-07,2.751235312782118e-07,5.252226329721443e-07,9.758750995111536e-08,1.7163741735062537e-07,5.2121503190276196e-08,4.792948663152501e-07,2.5011199983663212e-08,2.644403365513537e-08,1.5922166157265512e-08
15264.179671752334,1029.6654005226928,70.95650990299927,0.2607084141106965,0.10689727798892733,0.40339365322070225,1.9471389471135891,0.44298877853231605,2.0241652508903085,0.05204337119132388,0.3104225730092134,0.06397476236397877,0.44426334593282013,0.07700124496871764,0.3604558433715557,0.013120751544004007,0.07280483896376805,0.011813893392410905,0.020194932916811344,0.012142219737793534,0.03940550152963611,0.00593119937154129,0.019049357262378323,0.010362226226049834,0.02208188546255178,0.021190482721572243,0.2477473089233961,0.006183292156315462,0.013743540547933256,0.0001634328284776909,0.00021281860597156837,1.5001724258868049e-05,3.174391750762188e-05,2.022921811073792e-06,1.141655809870759e-05,2.1863802139112724e-06,5.914926813917638e-06,1.946460002592226e-06,6.433065364991692e-06,1.4689219380230897e-06,3.610573208932821e-06,6.605404083460749e-07,1.8252769050848218e-06,2.179852326486233e-07,6.930690242923029e-07,3.5944476359112075e-07,1.0167254053528416e-06,3.356671076269907e-07,8.675667444524846e-07,1.9057525343677946e-07,9.975876225195067e-07,2.0829714757743147e-07,1.1494356026477317e-06,2.3149647462640114e-07,5.531821465157251e-07,1.3431310065275844e-07,1.3524974323866356e-06,1.223008411469338e-07,3.7254265321089327e-07,9.049156147454814e-08,3.3300857193743015e-07,4.0575866663046574e-08,3.915030241985791e-07,6.525613261611176e-08,2.95910931105522e-07,7.208922378059596e-08,2.897805616505053e-07,1.0886089002400498e-07,1.8074743966595695e-07,3.703901257689805e-08,1.8416317006654665e-07,2.6477400191853033e-08,1.6582893535946201e-07,1.4798791276377802e-08,1.6436637558905023e-07,5.6559975229789735e-08,2.430059809163283e-07,1.5770820656851687e-07,3.010865664270511e-07,5.594017455638974e-08,9.839270326185961e-08,2.9876181979668087e-08,2.7469908973270713e-07,1.4334403403489371e-08,1.5147000176384328e-08,9.119513296638244e-09
19306.977288832495,609.1415089917522,40.26726353216905,0.1420854787841782,0.05539835029048612,0.21292750653945045,1.0758586803271974,0.23780674799047474,1.1337334535056471,0.02850193936892487,0.1713798234547201,0.03477944835253899,0.24871591788152797,0.04255428635250335,0.20355174647416394,0.0070398623338749,0.04082464293948243,0.006244915311786692,0.010730536909320545,0.006290660750539349,0.02172148802555532,0.0031247826083045807,0.009986634307641339,0.005490442250091316,0.011836378938227294,0.01178194291605951,0.14075466626649027,0.0035028539140556703,0.007808550018304384,9.282121070166988e-05,0.00012087852632438039,8.51646227638945e-06,1.8018272960812383e-05,1.1482314975523806e-06,6.477752513076037e-06,1.2408992937725279e-06,3.356040808361143e-06,1.1045186986139736e-06,3.650574105786158e-06,8.337204927993446e-07,2.049253880364174e-06,3.749404841086457e-07,1.0359522342675962e-06,1.237432408732212e-07,3.9332340358312246e-07,2.0400061582930135e-07,5.769343981820907e-07,1.9049421967336794e-07,4.921979970977698e-07,1.081185259762712e-07,5.658410008579658e-07,1.1813730888546417e-07,6.516437446464161e-07,1.3129077500400354e-07,3.136570032720691e-07,7.616326231718578e-08,7.667741439797998e-07,6.934274046709032e-08,2.112545273409443e-07,5.132324085049594e-08,1.8885028658503137e-07,2.3016557489805664e-08,2.2211663999998448e-07,3.7010802455261935e-08,1.6784199200931882e-07,4.0877766247509905e-08,1.6433057617664363e-07,6.172701645020211e-08,1.0248873030455539e-07,2.1002194661926868e-08,1.0443308177678552e-07,1.5012292097230723e-08,9.40264427915108e-08,8.390270972984099e-09,9.318910172633731e-08,3.206569907305462e-08,1.3776991705849725e-07,8.939987155500598e-08,1.7068355799322538e-07,3.171093694861986e-08,5.5778306580852635e-08,1.6935304182037594e-08,1.5569727155743362e-07,8.124489856566898e-09,8.581095892223506e-09,5.166108013417287e-09
24420.5309454865,351.31154519344796,22.1067399532157,0.07668390472318451,0.02840864099211714,0.11122191195844003,0.5884638414083936,0.12632325753140022,0.6286977171524011,0.015451669744188498,0.09366987878569545,0.01871826964358668,0.137851320947766,0.0232829306750612,0.11382246775723259,0.0037378601835883333,0.022664165436003213,0.0032656612747730945,0.005642640938664938,0.0032235723606242202,0.011853450707013125,0.0016290668068607457,0.005180928224308144,0.002879456307304245,0.006280399749124849,0.0064871582029091,0.0792070786849811,0.001964904400162779,0.004393579184057392,5.2219210583359137e-05,6.800765452806448e-05,4.789480122870523e-06,1.0131856695381996e-05,6.456595415340225e-07,3.6413968661995557e-06,6.977161264026756e-07,1.8865221249707096e-06,6.209376216631544e-07,2.052336609306544e-06,4.687827534661451e-07,1.1522456943384146e-06,2.1083696180147387e-07,5.824816830177327e-07,6.958753163985983e-08,2.2113713617082933e-07,1.1470025101246859e-07,3.243378778777772e-07,1.0710100500223863e-07,2.7665677748523325e-07,6.077135246878894e-08,3.1799473186923555e-07,6.638661815114444e-08,3.660660000098075e-07,7.37762932226982e-08,1.762195054562213e-07,4.279343093428836e-08,4.307457615281197e-07,3.895717857791005e-08,1.1869706648811869e-07,2.8840954498703256e-08,1.0611518571843002e-07,1.2935690875394262e-08,1.2485040111113025e-07,2.079815713107072e-08,9.432416648864313e-08,2.29673174366617e-08,9.233523353369195e-08,3.468068842226494e-08,5.758228858998852e-08,1.1799907554866615e-08,5.8678103276309666e-08,8.433998547758668e-09,5.2826442217565556e-08,4.713514915046011e-09,5.2352337701823226e-08,1.801336337568783e-08,7.739508589611437e-08,5.02170521176793e-08,9.587836434293442e-08,1.7812534881659663e-08,3.13325460509455e-08,9.512522458101147e-09,8.744754381090892e-08,4.563069676474189e-09,4.8177211969486574e-09,2.9002963997084686e-09
30888.43596477485,202.1131083405479,11.997989698686355,0.04105973044473788,0.0144443659501473,0.05760525436235361,0.3192330356083308,0.06653179501010076,0.34581448990286817,0.008308085651707956,0.05077940276564947,0.00999197739023853,0.07578469604291485,0.012635541575224856,0.06314009381903327,0.0019678600925557717,0.012480121583814978,0.0016927911686959347,0.002942278728106777,0.0016372839611540286,0.006415530495339637,0.00084208508380667,0.00266502571201081,0.0014976026453374413,0.003304946516266398,0.0035435832493684867,0.044226647346161885,0.0010934303230791986,0.0024526588672647257,2.9151117665237514e-05,3.796673553210938e-05,2.672939453180851e-06,5.653879830339917e-06,3.6029627742801995e-07,2.031511033119512e-06,3.8932237369376623e-07,1.0524609270269152e-06,3.4643712816004474e-07,1.1450778620270074e-06,2.615829930107636e-07,6.429562583444065e-07,1.1765525946049612e-07,3.2502243450437103e-07,3.8834404244920634e-08,1.2338657726005512e-07,6.400110229925718e-08,1.8095534344688005e-07,5.975850731122178e-08,1.5433292181886536e-07,3.3901117613602156e-08,1.7736822320314623e-07,3.7026328763561955e-08,2.0411418375092065e-07,4.1147039652463385e-08,9.826709978590291e-08,2.386478059206475e-08,2.401808282920628e-07,2.172358362616407e-08,6.619456388584067e-08,1.6085763409725672e-08,5.9180771399903626e-08,7.215472094023601e-09,6.964873129388029e-08,1.159998407201277e-08,5.261095632198841e-08,1.2808071346612906e-08,5.1494592529017175e-08,1.9339832582725126e-08,3.2111025277303016e-08,6.580286462334351e-09,3.272362292809642e-08,4.703026743807892e-09,2.9458286354858858e-08,2.6282988584738017e-09,2.9192258698849153e-08,1.0044139002645891e-08,4.3155417031488776e-08,2.7998637269812943e-08,5.3458691861030345e-08,9.931468363007906e-09,1.747005518158433e-08,5.303618390671551e-09,4.8752262973552945e-08,2.543899951435299e-09,2.685060707908494e-09,1.616361109465234e-09
39069.399370546205,116.11432678096263,6.468647353839333,0.021844812003188416,0.00729392070253355,0.029631816103894183,0.17202894427681498,0.03479974360494745,0.18896732907214164,0.0044375201292290115,0.027346503092636403,0.005298571961261488,0.04139006773134255,0.006812220568558935,0.03479922951135176,0.0010289401772581638,0.006827036842280042,0.0008712624142162815,0.0015238267994548652,0.0008256627169803995,0.0034492966312314713,0.0004322973089435621,0.0013614809048054248,0.0007736770645179687,0.0017275734354947332,0.001923263211908721,0.02453957308173756,0.0006045654695142008,0.0013604636780381188,1.6171933250976933e-05,2.10633008119998e-05,1.4825047562993574e-06,3.1355851601076474e-06,1.9981625363336636e-07,1.1264347048353848e-06,2.1590363370787376e-07,5.835623617997695e-07,1.9210190223272405e-07,6.349655175699772e-07,1.4506612659663854e-07,3.565632870116181e-07,6.525130676256704e-08,1.8024552847629935e-07,2.153828420941708e-08,6.84225136940777e-08,3.549212615517642e-08,1.0034060046649216e-07,3.313835073705381e-08,8.556936142079295e-08,1.8796284787597743e-08,9.83300173060082e-08,2.0525809542144533e-08,1.131278264924681e-07,2.280982348225964e-08,5.446744542638422e-08,1.3228397994995265e-08,1.3311819831332833e-07,1.2040708701283802e-08,3.6692204710011525e-08,8.917294780140612e-09,3.2805647141916293e-08,4.0002817211514515e-09,3.861693476040654e-08,6.430564351050804e-09,2.9166494567587358e-08,7.099503351746912e-09,2.854448939768244e-08,1.0719889091179348e-08,1.7798848138936294e-08,3.6473994386025925e-09,1.813906931021498e-08,2.6067412735427444e-09,1.632818696488189e-08,1.4567467636350475e-09,1.618000028481576e-08,5.566886997998467e-09,2.3918741302217627e-08,1.5517099943437725e-08,2.9627969883458566e-08,5.504133320913897e-09,9.682294478697715e-09,2.9392658729625485e-09,2.701702094741765e-08,1.409741809022905e-09,1.4876098993138007e-09,8.954881628737542e-10
49417.13361323839,64.25084719057212,3.4689590648168034,0.011562357071825987,0.003662925227136604,0.015158746016778146,0.09220704304640011,0.01810136479511817,0.10271348469591425,0.0023575386192150423,0.014648847076944705,0.0027947832500940487,0.02248614439335069,0.003653251415686034,0.01907959222940455,0.0005350519763698995,0.003714795620593926,0.0004458648268834951,0.0007849094728502054,0.0004139858677031248,0.0018445871089483898,0.00022070078565837145,0.000691707880322012,0.00039753146825504256,0.0008981928251008965,0.0010384476774298415,0.013547054801698908,0.0003325438499204594,0.000750777802768426,8.926452736007191e-06,1.1626700986897918e-05,8.181504457885382e-07,1.7303241431418609e-06,1.1026532559362442e-07,6.215082689311982e-07,1.1913842114653512e-07,3.2197627106326717e-07,1.0599587691177634e-07,3.503592981297914e-07,8.005025457468525e-08,1.9675791226659787e-07,3.6008324855738796e-08,9.946196493410524e-08,1.1886065412439108e-08,3.775508056326197e-08,1.9584797701750817e-08,5.5364662543465806e-08,1.828552231970293e-08,4.721038759762043e-08,1.0370266929298443e-08,5.4245749596341275e-08,1.1323049365600444e-08,6.239615306979697e-08,1.258288843303134e-08,3.00435789033081e-08,7.2969033641860074e-09,7.342231398097239e-08,6.641405083980325e-09,2.023981585968009e-08,4.919238841842214e-09,1.809649326449398e-08,2.2069001481708534e-09,2.13059561517157e-08,3.5474308293917503e-09,1.609021750382723e-08,3.9161091895213705e-09,1.5745702864469284e-08,5.913055227396709e-09,9.817786887420564e-09,2.011896856782545e-09,1.0005740230371473e-08,1.43782394086661e-09,9.006456624144024e-09,8.034947270496813e-10,8.924395245461714e-09,3.0704614454137536e-09,1.3192657614295183e-08,8.558168250641324e-09,1.6341063467767474e-08,3.0357137805114763e-09,5.340191290425639e-09,1.6210773055097952e-09,1.4899883311857916e-08,7.774684000316386e-10,8.202545582265875e-10,4.937514217627681e-10
62505.51925273976,34.73897095561539,1.8523512744747366,0.006094742480718837,0.0018313829749311643,0.007720643416370346,0.049210349581214896,0.009373776827693268,0.05559295271776455,0.0012471435287708815,0.007813605762519302,0.0014678360220619793,0.012164526881559501,0.0019508400755160256,0.010417227854275343,0.00027700564292795684,0.0020127076419147053,0.00022711762694076245,0.0004025398739028847,0.00020661915556322732,0.0009821950155496815,0.00011217539925241158,0.0003498741850758211,0.00020337559615983105,0.00046497169063344594,0.0005583714472253676,0.007448229768796835,0.0001821612257984339,0.00041262370106180224,4.907254378861273e-06,6.391849952650307e-06,4.497063321637764e-07,9.510438743042501e-07,6.060543206382357e-08,3.415591470662067e-07,6.548043286810347e-08,1.7694552408353812e-07,5.825338627654622e-08,1.9255317931899788e-07,4.3997331025760366e-08,1.0814211500412989e-07,1.9791559637802645e-08,5.466601695238076e-08,6.533198761275863e-09,2.075022420544899e-08,1.0764031365581046e-08,3.042734040299013e-08,1.0049742010371842e-08,2.594414784736331e-08,5.698895718972786e-09,2.980820073615466e-08,6.221861206437571e-09,3.428112544777713e-08,6.914071615439962e-09,1.6507073670625336e-08,4.0093157999355985e-09,4.033918589407224e-08,3.6489920228109017e-09,1.1120886645008701e-08,2.703064395923766e-09,9.94346110436428e-09,1.2127262898816166e-09,1.170862998208551e-08,1.949271518650486e-09,8.841589016305873e-09,2.151705369318759e-09,8.65167538698586e-09,3.248897006127899e-09,5.394331169031137e-09,1.1054275901909964e-09,5.497725250083677e-09,7.899843510307765e-10,4.948499092574505e-09,4.414574888867386e-10,4.903269700624887e-09,1.686954289877448e-09,7.248267406750846e-09,4.701793981173225e-09,8.977797959078564e-09,1.667804101898345e-09,2.9339058351507967e-09,8.905994258609266e-10,8.185509996743397e-09,4.271142696417075e-10,4.505504191087241e-10,2.7120268580114616e-10
79060.43210907701,18.696433115846183,0.9857296284680092,0.0032021074939181274,0.0009124351183392726,0.003918454047456428,0.026172973908799916,0.004836984198279291,0.029986987613164477,0.0006574840897735025,0.004153543935698896,0.0007682792937039322,0.006558542962019782,0.0010382077681772963,0.005668699116238059,0.00014290721246950822,0.0010867712902165266,0.00011526150527568946,0.000205724597737315,0.00010274500117580394,0.0005211944473080755,5.681342018946195e-05,0.00017634602176551845,0.00010368606999219944,0.00023987400209040592,0.00029923607412511054,0.004081740162668577,9.94550378103854e-05,0.0002260345291515074,2.689009354878715e-06,3.5025839473478786e-06,2.463949721011657e-07,5.210567817300793e-07,3.3204406722691615e-08,1.8711453162230837e-07,3.5874473808370204e-08,9.693456852188043e-08,3.1913421561543e-08,1.0548887081831451e-07,2.410479903735741e-08,5.9247661489840374e-08,1.0843459609048384e-08,2.994967778923679e-08,3.5794989096749724e-09,1.1368078275657034e-08,5.897200624555559e-09,1.6669235806494613e-08,5.50578639730387e-09,1.4212399798055302e-08,3.1218920047482587e-09,1.6328200113530092e-08,3.408100911587851e-09,1.877585222069929e-08,3.787246998036638e-09,9.041317377955673e-09,2.1960507848594026e-09,2.2093939055265756e-08,1.998619303375212e-09,6.091335672934672e-09,1.480641704815212e-09,5.446515883514436e-09,6.643140449417724e-10,6.414114241315169e-09,1.0677405431769877e-09,4.84318959040768e-09,1.178560690105477e-09,4.738897112685175e-09,1.7795165394780192e-09,2.9546336344622055e-09,6.054758612692307e-10,3.0113185208712382e-09,4.3268861392952594e-10,2.710416572059985e-09,2.4179118452170965e-10,2.6855815176731867e-09,9.239531155659392e-10,3.969928519848792e-09,2.5751149503165485e-09,4.917093081082276e-09,9.134385861288516e-10,1.6068836232189247e-09,4.877669748297323e-10,4.482939284420334e-09,2.3391614742215233e-10,2.467212629371079e-10,1.4850792987115382e-10
100000.0,10.025503790121768,0.5231217681880007,0.0016779485347679609,0.0004533234466649419,0.001983160913599883,0.013882141470370845,0.0024888858117492864,0.016131144062456308,0.00034567233187832684,0.0022019452356143794,0.0004010266553118231,0.003526551055505653,0.0005510173087567033,0.0030765029782046814,7.351967257430339e-05,0.0005852009080412152,5.832029866176489e-05,0.00010484781614611736,5.09424833168006e-05,0.0002758083207295131,2.869300333938608e-05,8.863304786300042e-05,5.2715916151660956e-05,0.00012340793438019758,0.00015993629120184043,0.0022310413566120745,5.415682342135068e-05,0.0001234989281459529,1.469684163314399e-06,1.9143738817696856e-06,1.3465515988757115e-07,2.8474848141926696e-07,1.8145623459434474e-08,1.0224684529720428e-07,1.9604406584522255e-08,5.29686881666963e-08,1.7439108509050575e-08,5.7644841203259767e-08,1.3172684011616594e-08,3.2377346516483664e-08,5.9258005733490436e-09,1.636669743464092e-08,1.9561772454903988e-09,6.212230152621635e-09,3.222638894333704e-09,9.108909597284075e-09,3.0087080448858676e-09,7.766030338570479e-09,1.7058816047601233e-09,8.921741118624462e-09,1.8621535379551137e-09,1.0258051380401447e-08,2.069307821263001e-09,4.939814575233357e-09,1.19985729013178e-09,1.2070895851323918e-08,1.0919565812218627e-09,3.3281324702550986e-09,8.090109154311206e-10,2.9758644930692074e-09,3.629871438706022e-10,3.5048583884116655e-09,5.834046262536279e-10,2.6463151285787896e-09,6.439271837917413e-10,2.5892156351429947e-09,9.722647028211474e-10,1.614306662269673e-09,3.308107922567883e-10,1.6452996204152474e-09,2.364016819791448e-10,1.4808659574178203e-09,1.321025988023225e-10,1.4672702101999092e-09,5.047971206990052e-10,2.1689581267426257e-09,1.4068655931567976e-09,2.6863899607486986e-09,4.990413192317007e-10,8.778990110927936e-10,2.664809475325118e-10,2.449097822440567e-09,1.27791777641515e-10,1.3477435853292394e-10,8.112301946085763e-11
