 ==================================================================
              Calculation using SRIM-2006 
              SRIM version ---> 
              Calc. date   ---> June 10, 2020 
 ==================================================================

 Disk File Name = SRout.OUT

 Ion = Uranium      [92] , Mass = 238 amu

 Density =  2.3300E+00 g/cm3 = 4.9951E+22 atoms/cm3
 ======= Target  Composition ========
    Atom   Atom   Atomic    Mass     
    Name   Numb   Percent   Percent  
    ----   ----   -------   -------  
     Si     14    100.00    100.00   
 ====================================
 Bragg Correction = 0.00%
 Stopping Units =  keV/(mg/cm2) 
 See bottom of Table for other Stopping units 

 Ion = Uranium      [92] , Mass = 238 amu

   Ion        dE/dx      dE/dx     Projected  Longitudinal   Lateral
  Energy      Elec.      Nuclear     Range     Straggling   Straggling
-----------  ---------- ---------- ----------  ----------  ----------
99.9999 eV    6.937E+01  4.566E+02      19 A         5 A         4 A   
    110 eV    7.275E+01  4.853E+02      20 A         5 A         4 A   
    120 eV    7.599E+01  5.129E+02      21 A         5 A         4 A   
    130 eV    7.909E+01  5.396E+02      21 A         5 A         4 A   
139.999 eV    8.207E+01  5.655E+02      22 A         6 A         4 A   
149.999 eV    8.495E+01  5.906E+02      22 A         6 A         4 A   
159.999 eV    8.774E+01  6.150E+02      23 A         6 A         4 A   
169.999 eV    9.044E+01  6.388E+02      24 A         6 A         4 A   
179.999 eV    9.306E+01  6.620E+02      24 A         6 A         5 A   
199.999 eV    9.810E+01  7.068E+02      25 A         6 A         5 A   
224.999 eV    1.040E+02  7.602E+02      26 A         7 A         5 A   
249.999 eV    1.097E+02  8.111E+02      27 A         7 A         5 A   
274.999 eV    1.150E+02  8.597E+02      28 A         7 A         5 A   
299.999 eV    1.201E+02  9.065E+02      29 A         7 A         6 A   
324.999 eV    1.251E+02  9.515E+02      30 A         8 A         6 A   
349.999 eV    1.298E+02  9.950E+02      31 A         8 A         6 A   
374.999 eV    1.343E+02  1.037E+03      32 A         8 A         6 A   
399.999 eV    1.387E+02  1.078E+03      32 A         8 A         6 A   
449.999 eV    1.471E+02  1.156E+03      34 A         9 A         6 A   
499.999 eV    1.551E+02  1.230E+03      35 A         9 A         7 A   
549.999 eV    1.627E+02  1.301E+03      37 A        10 A         7 A   
599.999 eV    1.699E+02  1.369E+03      38 A        10 A         7 A   
649.999 eV    1.768E+02  1.434E+03      39 A        10 A         7 A   
699.999 eV    1.835E+02  1.497E+03      40 A        10 A         8 A   
799.999 eV    1.962E+02  1.616E+03      42 A        11 A         8 A   
899.999 eV    2.081E+02  1.728E+03      44 A        12 A         8 A   
999.999 eV    2.194E+02  1.834E+03      46 A        12 A         9 A   
   1.10 keV   2.301E+02  1.934E+03      48 A        13 A         9 A   
   1.20 keV   2.403E+02  2.030E+03      50 A        13 A         9 A   
   1.30 keV   2.501E+02  2.122E+03      51 A        13 A        10 A   
   1.40 keV   2.595E+02  2.210E+03      53 A        14 A        10 A   
   1.50 keV   2.687E+02  2.294E+03      55 A        14 A        10 A   
   1.60 keV   2.775E+02  2.376E+03      56 A        15 A        10 A   
   1.70 keV   2.860E+02  2.455E+03      57 A        15 A        11 A   
   1.80 keV   2.943E+02  2.531E+03      59 A        15 A        11 A   
   2.00 keV   3.102E+02  2.677E+03      61 A        16 A        11 A   
   2.25 keV   3.290E+02  2.849E+03      64 A        17 A        12 A   
   2.50 keV   3.468E+02  3.010E+03      67 A        17 A        12 A   
   2.75 keV   3.638E+02  3.161E+03      70 A        18 A        13 A   
   3.00 keV   3.799E+02  3.305E+03      73 A        19 A        13 A   
   3.25 keV   3.954E+02  3.442E+03      75 A        19 A        14 A   
   3.50 keV   4.104E+02  3.572E+03      78 A        20 A        14 A   
   3.75 keV   4.248E+02  3.697E+03      80 A        21 A        15 A   
   4.00 keV   4.387E+02  3.817E+03      82 A        21 A        15 A   
   4.50 keV   4.653E+02  4.043E+03      87 A        22 A        16 A   
   5.00 keV   4.905E+02  4.254E+03      91 A        23 A        16 A   
   5.50 keV   5.144E+02  4.451E+03      95 A        24 A        17 A   
   6.00 keV   5.373E+02  4.637E+03      99 A        25 A        18 A   
   6.50 keV   5.592E+02  4.813E+03     102 A        26 A        18 A   
   7.00 keV   5.804E+02  4.980E+03     106 A        27 A        19 A   
   8.00 keV   6.204E+02  5.290E+03     112 A        28 A        20 A   
   9.00 keV   6.581E+02  5.575E+03     119 A        29 A        21 A   
  10.00 keV   6.937E+02  5.837E+03     125 A        31 A        22 A   
  11.00 keV   7.275E+02  6.081E+03     131 A        32 A        23 A   
  12.00 keV   7.599E+02  6.309E+03     136 A        33 A        24 A   
  13.00 keV   7.909E+02  6.524E+03     142 A        34 A        25 A   
  14.00 keV   8.207E+02  6.725E+03     147 A        35 A        26 A   
  15.00 keV   8.495E+02  6.916E+03     152 A        37 A        27 A   
  16.00 keV   8.774E+02  7.097E+03     157 A        38 A        27 A   
  17.00 keV   9.044E+02  7.270E+03     162 A        39 A        28 A   
  18.00 keV   9.306E+02  7.434E+03     166 A        39 A        29 A   
  20.00 keV   9.810E+02  7.741E+03     175 A        41 A        30 A   
  22.50 keV   1.040E+03  8.092E+03     186 A        43 A        32 A   
  25.00 keV   1.097E+03  8.410E+03     197 A        46 A        34 A   
  27.50 keV   1.150E+03  8.702E+03     207 A        47 A        35 A   
  30.00 keV   1.201E+03  8.971E+03     217 A        49 A        37 A   
  32.50 keV   1.251E+03  9.220E+03     226 A        51 A        38 A   
  35.00 keV   1.298E+03  9.453E+03     235 A        53 A        40 A   
  37.50 keV   1.343E+03  9.670E+03     244 A        54 A        41 A   
  40.00 keV   1.387E+03  9.875E+03     253 A        56 A        43 A   
  45.00 keV   1.471E+03  1.025E+04     270 A        59 A        45 A   
  50.00 keV   1.551E+03  1.058E+04     287 A        62 A        48 A   
  55.00 keV   1.627E+03  1.089E+04     303 A        65 A        50 A   
  60.00 keV   1.699E+03  1.116E+04     318 A        68 A        53 A   
  65.00 keV   1.768E+03  1.141E+04     333 A        70 A        55 A   
  70.00 keV   1.835E+03  1.164E+04     348 A        73 A        57 A   
  80.00 keV   1.962E+03  1.206E+04     377 A        78 A        62 A   
  90.00 keV   2.081E+03  1.241E+04     405 A        82 A        66 A   
 100.00 keV   2.194E+03  1.273E+04     432 A        87 A        70 A   
 110.00 keV   2.301E+03  1.300E+04     458 A        91 A        74 A   
 120.00 keV   2.403E+03  1.325E+04     484 A        95 A        77 A   
 130.00 keV   2.501E+03  1.347E+04     509 A        99 A        81 A   
 140.00 keV   2.595E+03  1.367E+04     534 A       103 A        85 A   
 150.00 keV   2.687E+03  1.385E+04     558 A       107 A        88 A   
 160.00 keV   2.775E+03  1.401E+04     582 A       111 A        92 A   
 170.00 keV   2.860E+03  1.416E+04     606 A       114 A        95 A   
 180.00 keV   2.943E+03  1.430E+04     629 A       118 A        98 A   
 200.00 keV   3.102E+03  1.454E+04     675 A       125 A       105 A   
 225.00 keV   3.290E+03  1.479E+04     731 A       134 A       112 A   
 250.00 keV   3.468E+03  1.499E+04     786 A       142 A       120 A   
 275.00 keV   3.638E+03  1.516E+04     840 A       150 A       127 A   
 300.00 keV   3.799E+03  1.530E+04     893 A       157 A       134 A   
 325.00 keV   3.954E+03  1.541E+04     946 A       165 A       141 A   
 350.00 keV   4.104E+03  1.550E+04     997 A       172 A       148 A   
 375.00 keV   4.248E+03  1.558E+04    1049 A       180 A       155 A   
 400.00 keV   4.387E+03  1.564E+04    1099 A       187 A       161 A   
 450.00 keV   4.653E+03  1.573E+04    1200 A       201 A       174 A   
 500.00 keV   4.885E+03  1.578E+04    1298 A       214 A       186 A   
 550.00 keV   5.134E+03  1.580E+04    1396 A       227 A       199 A   
 600.00 keV   5.404E+03  1.580E+04    1492 A       240 A       210 A   
 650.00 keV   5.671E+03  1.578E+04    1588 A       253 A       222 A   
 700.00 keV   5.920E+03  1.575E+04    1682 A       265 A       233 A   
 800.00 keV   6.352E+03  1.565E+04    1869 A       289 A       256 A   
 900.00 keV   6.699E+03  1.553E+04    2054 A       313 A       277 A   
   1.00 MeV   6.975E+03  1.538E+04    2237 A       335 A       298 A   
   1.10 MeV   7.197E+03  1.522E+04    2420 A       357 A       319 A   
   1.20 MeV   7.375E+03  1.506E+04    2604 A       379 A       339 A   
   1.30 MeV   7.521E+03  1.488E+04    2787 A       400 A       359 A   
   1.40 MeV   7.643E+03  1.471E+04    2971 A       422 A       379 A   
   1.50 MeV   7.749E+03  1.454E+04    3155 A       442 A       398 A   
   1.60 MeV   7.843E+03  1.437E+04    3340 A       463 A       418 A   
   1.70 MeV   7.931E+03  1.419E+04    3526 A       484 A       437 A   
   1.80 MeV   8.016E+03  1.402E+04    3713 A       504 A       457 A   
   2.00 MeV   8.185E+03  1.369E+04    4090 A       545 A       495 A   
   2.25 MeV   8.408E+03  1.330E+04    4564 A       597 A       543 A   
   2.50 MeV   8.655E+03  1.292E+04    5043 A       647 A       590 A   
   2.75 MeV   8.927E+03  1.257E+04    5525 A       696 A       637 A   
   3.00 MeV   9.220E+03  1.223E+04    6008 A       744 A       683 A   
   3.25 MeV   9.533E+03  1.192E+04    6492 A       791 A       730 A   
   3.50 MeV   9.860E+03  1.162E+04    6977 A       836 A       775 A   
   3.75 MeV   1.020E+04  1.134E+04    7461 A       881 A       820 A   
   4.00 MeV   1.054E+04  1.107E+04    7944 A       924 A       865 A   
   4.50 MeV   1.124E+04  1.058E+04    8904 A      1011 A       952 A   
   5.00 MeV   1.193E+04  1.014E+04    9856 A      1093 A      1037 A   
   5.50 MeV   1.261E+04  9.735E+03    1.08 um     1170 A      1120 A   
   6.00 MeV   1.325E+04  9.369E+03    1.17 um     1242 A      1200 A   
   6.50 MeV   1.386E+04  9.034E+03    1.26 um     1311 A      1278 A   
   7.00 MeV   1.443E+04  8.726E+03    1.36 um     1377 A      1353 A   
   8.00 MeV   1.544E+04  8.178E+03    1.54 um     1510 A      1497 A   
   9.00 MeV   1.630E+04  7.706E+03    1.71 um     1630 A      1634 A   
  10.00 MeV   1.700E+04  7.294E+03    1.89 um     1742 A      1765 A   
  11.00 MeV   1.759E+04  6.930E+03    2.06 um     1846 A      1890 A   
  12.00 MeV   1.807E+04  6.606E+03    2.23 um     1945 A      2011 A   
  13.00 MeV   1.846E+04  6.316E+03    2.40 um     2038 A      2127 A   
  14.00 MeV   1.879E+04  6.054E+03    2.57 um     2127 A      2241 A   
  15.00 MeV   1.907E+04  5.816E+03    2.74 um     2213 A      2351 A   
  16.00 MeV   1.931E+04  5.599E+03    2.91 um     2296 A      2459 A   
  17.00 MeV   1.952E+04  5.400E+03    3.08 um     2376 A      2564 A   
  18.00 MeV   1.972E+04  5.217E+03    3.25 um     2453 A      2667 A   
  20.00 MeV   2.009E+04  4.891E+03    3.59 um     2622 A      2868 A   
  22.50 MeV   2.058E+04  4.543E+03    4.02 um     2832 A      3108 A   
  25.00 MeV   2.112E+04  4.248E+03    4.44 um     3025 A      3338 A   
  27.50 MeV   2.174E+04  3.993E+03    4.85 um     3204 A      3557 A   
  30.00 MeV   2.245E+04  3.771E+03    5.26 um     3369 A      3766 A   
  32.50 MeV   2.324E+04  3.576E+03    5.66 um     3521 A      3965 A   
  35.00 MeV   2.410E+04  3.402E+03    6.05 um     3661 A      4153 A   
  37.50 MeV   2.503E+04  3.246E+03    6.44 um     3791 A      4331 A   
  40.00 MeV   2.600E+04  3.106E+03    6.81 um     3910 A      4499 A   
  45.00 MeV   2.806E+04  2.863E+03    7.52 um     4181 A      4807 A   
  50.00 MeV   3.021E+04  2.659E+03    8.19 um     4410 A      5082 A   
  55.00 MeV   3.239E+04  2.485E+03    8.82 um     4605 A      5327 A   
  60.00 MeV   3.456E+04  2.335E+03    9.41 um     4772 A      5546 A   
  65.00 MeV   3.669E+04  2.204E+03    9.97 um     4918 A      5744 A   
  70.00 MeV   3.878E+04  2.088E+03   10.51 um     5047 A      5922 A   
  80.00 MeV   4.275E+04  1.893E+03   11.51 um     5357 A      6233 A   
  90.00 MeV   4.644E+04  1.735E+03   12.43 um     5606 A      6495 A   
 100.00 MeV   4.986E+04  1.603E+03   13.29 um     5813 A      6720 A   
 110.00 MeV   5.302E+04  1.492E+03   14.10 um     5988 A      6915 A   
 120.00 MeV   5.595E+04  1.396E+03   14.86 um     6141 A      7088 A   
 130.00 MeV   5.868E+04  1.314E+03   15.59 um     6275 A      7243 A   
 140.00 MeV   6.122E+04  1.241E+03   16.29 um     6395 A      7381 A   
 150.00 MeV   6.360E+04  1.177E+03   16.96 um     6504 A      7508 A   
 160.00 MeV   6.583E+04  1.119E+03   17.61 um     6603 A      7623 A   
 170.00 MeV   6.794E+04  1.068E+03   18.24 um     6694 A      7730 A   
 180.00 MeV   6.993E+04  1.021E+03   18.86 um     6778 A      7828 A   
 200.00 MeV   7.361E+04  9.399E+02   20.03 um     7028 A      8005 A   
 225.00 MeV   7.774E+04  8.564E+02   21.43 um     7352 A      8197 A   
 250.00 MeV   8.144E+04  7.876E+02   22.77 um     7631 A      8364 A   
 275.00 MeV   8.479E+04  7.299E+02   24.04 um     7878 A      8512 A   
 300.00 MeV   8.785E+04  6.807E+02   25.27 um     8099 A      8644 A   
 325.00 MeV   9.065E+04  6.382E+02   26.47 um     8300 A      8764 A   
 350.00 MeV   9.324E+04  6.010E+02   27.63 um     8484 A      8873 A   
 375.00 MeV   9.563E+04  5.683E+02   28.75 um     8655 A      8973 A   
 400.00 MeV   9.785E+04  5.393E+02   29.86 um     8814 A      9066 A   
 450.00 MeV   1.018E+05  4.898E+02   31.99 um     9351 A      9234 A   
 500.00 MeV   1.054E+05  4.493E+02   34.05 um     9823 A      9382 A   
 550.00 MeV   1.077E+05  4.154E+02   36.06 um     1.02 um     9516 A   
 600.00 MeV   1.094E+05  3.865E+02   38.03 um     1.06 um     9639 A   
 650.00 MeV   1.113E+05  3.617E+02   39.96 um     1.10 um     9752 A   
 700.00 MeV   1.128E+05  3.401E+02   41.87 um     1.14 um     9858 A   
 800.00 MeV   1.153E+05  3.043E+02   45.62 um     1.26 um     1.01 um  
 900.00 MeV   1.170E+05  2.757E+02   49.30 um     1.36 um     1.02 um  
   1.00 GeV   1.182E+05  2.523E+02   52.94 um     1.46 um     1.04 um  
   1.10 GeV   1.189E+05  2.329E+02   56.56 um     1.55 um     1.05 um  
   1.20 GeV   1.193E+05  2.163E+02   60.15 um     1.63 um     1.07 um  
   1.30 GeV   1.193E+05  2.022E+02   63.74 um     1.71 um     1.08 um  
   1.40 GeV   1.192E+05  1.898E+02   67.33 um     1.78 um     1.09 um  
   1.50 GeV   1.189E+05  1.790E+02   70.93 um     1.86 um     1.11 um  
   1.60 GeV   1.184E+05  1.694E+02   74.55 um     1.93 um     1.12 um  
   1.70 GeV   1.179E+05  1.609E+02   78.17 um     1.99 um     1.13 um  
   1.80 GeV   1.172E+05  1.532E+02   81.82 um     2.06 um     1.14 um  
   2.00 GeV   1.157E+05  1.400E+02   89.18 um     2.31 um     1.16 um  
   2.25 GeV   1.136E+05  1.265E+02   98.53 um     2.66 um     1.19 um  
   2.50 GeV   1.114E+05  1.155E+02  108.06 um     2.99 um     1.22 um  
   2.75 GeV   1.091E+05  1.064E+02  117.79 um     3.29 um     1.25 um  
   3.00 GeV   1.068E+05  9.871E+01  127.72 um     3.58 um     1.27 um  
   3.25 GeV   1.046E+05  9.209E+01  137.86 um     3.86 um     1.30 um  
   3.50 GeV   1.025E+05  8.636E+01  148.21 um     4.13 um     1.33 um  
   3.75 GeV   1.004E+05  8.133E+01  158.78 um     4.39 um     1.35 um  
   4.00 GeV   9.843E+04  7.689E+01  169.56 um     4.65 um     1.38 um  
   4.50 GeV   9.470E+04  6.938E+01  191.78 um     5.61 um     1.43 um  
   5.00 GeV   9.128E+04  6.328E+01  214.85 um     6.50 um     1.49 um  
-----------------------------------------------------------
 Multiply Stopping by        for Stopping Units
 -------------------        ------------------
  2.3299E-02                eV/Angstrom 
  2.3299E-01                keV/micron   
  2.3299E-01                MeV/mm       
  1.0000E-03                keV/(ug/cm2) 
  1.0000E-03                MeV/(mg/cm2) 
  1.0000E+00                keV/(mg/cm2) 
  4.6644E-02                 eV/(1E15 atoms/cm2)
  2.4487E-05                L.S.S. reduced units
 ==================================================================
 (C) 1984,1989,1992,1998,2006 by J.P. Biersack and J.F. Ziegler
