Coverglass (SiO2) thickness [um],Power ratio (EOL-to-BOL) [%]: GaAs SJ,Emcore 3J
25.0,95.88973246780557,97.39080266269656
50.0,97.69202077653048,98.54475459511166
75.0,98.33691593598085,98.95468206503199
100.0,98.69218827606451,99.17968916396973
150.0,99.05199241735806,99.40675874259156
200.0,99.22670021779612,99.51656719945915
300.0,99.40259028597733,99.62667071529202
500.0,99.54311620147735,99.71421969649634
700.0,99.60322584746844,99.75156380289674
1000.0,99.651195875744,99.78135587204933
