ISO15390 GCR parameters for Z = 1 through 92,,,,,,,,
Z,Particle,Ai,Ci,sigmaCi,gammai,sigmagammai,alphai,sigmaalphai
1,H,1,18500,1300,2.74,0.02,2.85,0.02
2,He,4,3690,220,2.77,0.02,3.12,0.02
3,Li,6.9,19.5,1.5,2.82,0.02,3.41,0.11
4,Be,9,17.7,1.3,3.05,0.02,4.3,0.12
5,B,10.8,49.2,1.6,2.96,0.01,3.93,0.05
6,C,12,103,3,2.76,0.01,3.18,0.04
7,N,14,36.7,1.2,2.89,0.01,3.77,0.05
8,O,16,87.4,2.1,2.7,0.01,3.11,0.04
9,F,19,3.19,0.28,2.82,0.03,4.05,0.06
10,Ne,20.2,16.4,0.7,2.76,0.01,3.11,0.07
11,Na,23,4.43,0.28,2.84,0.02,3.14,0.09
12,Mg,24.3,19.3,0.7,2.7,0.01,3.65,0.27
13,Al,27,4.17,0.22,2.77,0.02,3.46,0.21
14,Si,28.1,13.4,0.5,2.66,0.01,3,0.1
15,P,31,1.15,0.04,2.89,0.01,4.04,0.41
16,S,32.1,3.06,0.12,2.71,0.02,3.3,0.22
17,Cl,35.4,1.3,0.08,3,0.04,4.4,0.3
18,Ar,39.9,2.33,0.07,2.93,0.01,4.33,0.21
19,K,39.1,1.87,0.05,3.05,0.01,4.49,0.2
20,Ca,40.1,2.17,0.06,2.77,0.01,2.93,0.16
21,Sc,44.9,0.74,0.02,2.97,0.01,3.78,0.19
22,Ti,47.9,2.63,0.08,2.99,0.01,3.79,0.17
23,V,50.9,1.23,0.04,2.94,0.01,3.5,0.14
24,Cr,52,2.12,0.06,2.89,0.01,3.28,0.17
25,Mn,54.9,1.14,0.05,2.74,0.02,3.29,0.27
26,Fe,55.8,9.32,0.24,2.63,0.01,3.01,0.07
27,Co,58.9,0.1,0.08,2.63,0,4.25,0.79
28,Ni,58.7,0.49,0.02,2.63,0.01,3.52,0.28
29,Cu,63.5,0.00634,0.000163,2.63,0.01,3.01,0.07
30,Zn,65.4,0.0082,0.000211,2.63,0.01,3.01,0.07
31,Ga,69.7,0.000606,0.0000156,2.63,0.01,3.01,0.07
32,Ge,72.6,0.0013,0.0000336,2.63,0.01,3.01,0.07
33,As,74.9,0.0000829,0.00000214,2.63,0.01,3.01,0.07
34,Se,79,0.000485,0.0000125,2.63,0.01,3.01,0.07
35,Br,79.9,0.0000904,0.00000233,2.63,0.01,3.01,0.07
36,Kr,83.8,0.000252,0.00000648,2.63,0.01,3.01,0.07
37,Rb,85.5,0.000082,0.00000211,2.63,0.01,3.01,0.07
38,Sr,87.6,0.00027,0.00000696,2.63,0.01,3.01,0.07
39,Y,88.9,0.0000606,0.00000156,2.63,0.01,3.01,0.07
40,Zr,91.2,0.000149,0.00000384,2.63,0.01,3.01,0.07
41,Nb,92.9,0.000027,0.000000696,2.63,0.01,3.01,0.07
42,Mo,95.9,0.0000755,0.00000194,2.63,0.01,3.01,0.07
43,Tc,97,0.00000885,0.000000228,2.63,0.01,3.01,0.07
44,Ru,101,0.0000289,0.000000744,2.63,0.01,3.01,0.07
45,Rh,102.9,0.0000149,0.000000384,2.63,0.01,3.01,0.07
46,Pd,106.4,0.0000429,0.0000011,2.63,0.01,3.01,0.07
47,Ag,107.9,0.000014,0.00000036,2.63,0.01,3.01,0.07
48,Cd,112.4,0.0000373,0.00000096,2.63,0.01,3.01,0.07
49,In,114.8,0.0000082,0.000000211,2.63,0.01,3.01,0.07
50,Sn,118.7,0.0000438,0.00000113,2.63,0.01,3.01,0.07
51,Sb,121.8,0.00000923,0.000000238,2.63,0.01,3.01,0.07
52,Te,127.6,0.0000531,0.00000137,2.63,0.01,3.01,0.07
53,J,126.9,0.0000103,0.000000264,2.63,0.01,3.01,0.07
54,Xe,131.3,0.0000252,0.000000648,2.63,0.01,3.01,0.07
55,Cs,132.9,0.00000606,0.000000156,2.63,0.01,3.01,0.07
56,Ba,137.3,0.0000624,0.00000161,2.63,0.01,3.01,0.07
57,La,138.9,0.00000559,0.000000144,2.63,0.01,3.01,0.07
58,Ce,140.1,0.0000168,0.000000432,2.63,0.01,3.01,0.07
59,Pr,140.9,0.00000401,0.000000103,2.63,0.01,3.01,0.07
60,Nd,144.2,0.0000149,0.000000384,2.63,0.01,3.01,0.07
61,Pm,144.2,0.00000177,4.56E-08,2.63,0.01,3.01,0.07
62,Sm,145,0.0000168,0.000000432,2.63,0.01,3.01,0.07
63,Eu,150.4,0.00000289,7.44E-08,2.63,0.01,3.01,0.07
64,Gd,152,0.000013,0.000000336,2.63,0.01,3.01,0.07
65,Tb,157.3,0.00000326,0.000000084,2.63,0.01,3.01,0.07
66,Dy,158.9,0.000013,0.000000336,2.63,0.01,3.01,0.07
67,Ho,162.5,0.00000494,0.000000127,2.63,0.01,3.01,0.07
68,Er,164.9,0.0000082,0.000000211,2.63,0.01,3.01,0.07
69,Tu,167.3,0.00000168,4.32E-08,2.63,0.01,3.01,0.07
70,Yb,168.9,0.00000829,0.000000214,2.63,0.01,3.01,0.07
71,Lu,173,0.00000121,3.12E-08,2.63,0.01,3.01,0.07
72,Hf,175,0.00000755,0.000000194,2.63,0.01,3.01,0.07
73,Ta,178.5,0.00000068,1.75E-08,2.63,0.01,3.01,0.07
74,W,180.9,0.00000755,0.000000194,2.63,0.01,3.01,0.07
75,Re,183.9,0.00000261,6.72E-08,2.63,0.01,3.01,0.07
76,Os,186.2,0.0000112,0.000000288,2.63,0.01,3.01,0.07
77,Ir,190.2,0.00000736,0.00000019,2.63,0.01,3.01,0.07
78,Pt,192.2,0.000014,0.00000036,2.63,0.01,3.01,0.07
79,Au,195.1,0.00000261,6.72E-08,2.63,0.01,3.01,0.07
80,Hg,197,0.00000457,0.000000118,2.63,0.01,3.01,0.07
81,Tl,200.6,0.0000014,0.000000036,2.63,0.01,3.01,0.07
82,Pb,204.4,0.000013,0.000000336,2.63,0.01,3.01,0.07
83,Bi,207.2,0.00000068,1.75E-08,2.63,0.01,3.01,0.07
90,Th,232,0.000000755,1.94E-08,2.63,0.01,3.01,0.07
92,U,238,0.000000457,1.18E-08,2.63,0.01,3.01,0.07
