Al-equivalent spherical shield thickness [mm],Soft error rate [bit-1 day-1] in GaAs MESFET 1K SRAM: Total,Ions,Protons,Probability of destructive SEE [%]
0.001,3661.1319371851064,3661.1292188379866,0.002718347119397381,41.968890185775166
0.002,2518.396074331997,2518.393356377613,0.002717954384131184,42.59869825125619
0.003,1835.3705236353449,1835.3678060734308,0.002717561914158984,43.15153827875545
0.005,1161.1992415851903,1161.1965248074216,0.0027167777686873513,43.67917792176556
0.007,815.0456972350912,815.042981240411,0.002715994680170869,43.76244030505115
0.01,534.5371301383931,534.53441531637,0.0027148220230634674,43.43469952176202
0.02,190.07130417642503,190.06859324624932,0.0027109301756960955,40.13338974230226
0.03,91.80372486870121,91.80101780446707,0.002707064234142709,36.07735532939224
0.05,32.431706273159705,32.429006864434875,0.002699408724821935,29.26180403160731
0.07,19.025940807476573,19.023248954605833,0.0026918528707365282,24.171403115808758
0.1,10.664892196989026,10.662211496548478,0.002680700440547352,18.989214606390714
0.2,3.5354970312527905,3.5328520284446565,0.002645002808133719,10.641101406128136
0.3,1.7563210575949455,1.7537096831191452,0.0026113744758002907,7.13353203823992
0.5,0.6096563723991937,0.6071065791556275,0.002549793243566131,4.05913209028886
0.7,0.2754617300974488,0.2729682510551141,0.0024934790423347198,2.701619555720631
1.0,0.12351945433063435,0.12110012673600959,0.002419327594624761,1.7130695187044556
2.0,0.02003571894400013,0.017812812038250338,0.0022229069057497896,0.6503238023106547
3.0,0.008431062826677865,0.006352543675418386,0.002078519151259478,0.3535097238125411
5.0,0.003775350971376603,0.00191571981845982,0.001859631152916783,0.15691404559906866
7.0,0.00269304703933555,0.0009974226481696282,0.001695624391165922,0.08926656411213724
10.0,0.0020715601762078106,0.0005604925365405568,0.001511067639667254,0.04787782927416454
20.0,0.001278990238403779,0.00015902747172650848,0.0011199627666772705,0.013099972910070336
30.0,0.0009652665010388883,8.74205853153695e-05,0.0008778459157235189,0.005743636085950227
50.0,0.000621227894735858,3.79381196061864e-05,0.0005832897751296716,0.001842777951351846
