Energy [MeV],Differential fluence [cm-2 MeV-1],Mission-averaged exposure factor []
0.1,30723235573353.92,0.9942588431288824
0.10974987654930562,28642266938868.867,0.9942588431288824
0.12045035402587821,24573079592852.54,0.9942588431288824
0.1321941148466029,21081998920177.418,0.9942588431288824
0.14508287784959398,18086893699706.965,0.9942588431288824
0.1592282793341092,15517301036923.955,0.9942588431288824
0.17475284000076838,13312768652719.098,0.9942588431288824
0.19179102616724888,11421432682081.154,0.9942588431288824
0.2104904144512021,9798797523959.914,0.9942588431288824
0.23101297000831597,8406689037024.677,0.9942588431288824
0.2535364493970112,7212356454189.446,0.9942588431288824
0.2782559402207124,6187701887531.57,0.9942588431288824
0.30538555088334157,5308619296918.06,0.9942588431288824
0.33516026509388425,4554427370910.881,0.9942588431288824
0.36783797718286343,3907382977894.943,0.9942588431288824
0.40370172585965547,3352263740872.8022,0.9942588431288824
0.4430621457583881,2876009915573.889,0.9942588431288824
0.4862601580065355,2467417146696.7466,0.9942588431288824
0.533669923120631,2116872874062.4944,0.9942588431288824
0.5857020818056667,1816130187366.4607,0.9942588431288824
0.6428073117284322,1558113809231.219,0.9942588431288824
0.7054802310718644,1336753642114.907,0.9942588431288824
0.7742636826811272,1146841963097.1472,0.9942588431288824
0.8497534359086445,983910906904.0625,0.9942588431288824
0.9326033468832199,844127354836.5348,0.9942588431288824
1.0235310218990263,724202756757.1207,0.9942588431288824
1.1233240329780276,621315764605.4249,0.9942588431288824
1.2328467394420666,533045857317.4002,0.9942588431288824
1.3530477745798075,457316395607.1332,0.9942588431288824
1.484968262254465,392345766916.95056,0.9942588431288824
1.6297508346206444,336605471171.19073,0.9942588431288824
1.7886495290574351,288784161258.3608,0.9942588431288824
1.9630406500402715,247756792257.48932,0.9942588431288824
2.1544346900318843,212558153612.87708,0.9942588431288824
2.3644894126454084,182360161574.74152,0.9942588431288824
2.5950242113997373,156452377687.3385,0.9942588431288824
2.848035868435802,137203516209.46051,0.9942588431288824
3.1257158496882367,124027046125.02817,0.9942588431288824
3.4304692863149193,109409318982.76447,0.9942588431288824
3.764935806792469,93199429242.94528,0.9942588431288824
4.132012400115339,79391167881.95245,0.9942588431288824
4.5348785081285845,67628713918.73343,0.9942588431288824
4.977023564332112,60181467715.84653,0.9942588431288824
5.462277217684343,54033113358.575905,0.9942588431288824
5.994842503189412,45816617742.92521,0.9942588431288824
6.5793322465756825,39331534989.658875,0.9942588431288824
7.220809018385467,34863475403.21424,0.9942588431288824
7.924828983539178,30417099884.521088,0.9942588431288824
8.697490026177835,25505815854.138992,0.9942588431288824
9.545484566618342,22042952364.876396,0.9942588431288824
10.476157527896651,19695031256.21822,0.9942588431288824
11.497569953977369,16964594088.973858,0.9942588431288824
12.61856883066021,14051595905.584003,0.9942588431288824
13.848863713938732,11736774640.389107,0.9942588431288824
15.199110829529348,10307797232.763437,0.9942588431288824
16.68100537200059,9009793030.669113,0.9942588431288824
18.307382802953697,7375324611.165643,0.9942588431288824
20.09233002565048,6275674696.349491,0.9942588431288824
22.051307399030456,5357978460.454851,0.9942588431288824
24.201282647943835,4425961576.536085,0.9942588431288824
26.560877829466868,3713799780.607904,0.9942588431288824
29.150530628251786,3077384408.387267,0.9942588431288824
31.992671377973846,2537169871.334083,0.9942588431288824
35.111917342151344,2075822072.8819654,0.9942588431288824
38.535285937105314,1703480893.9965513,0.9942588431288824
42.29242874389499,1378545056.4217644,0.9942588431288824
46.41588833612782,1110240031.2722216,0.9942588431288824
50.9413801481638,890900501.8953997,0.9942588431288824
55.90810182512229,712604138.0893173,0.9942588431288824
61.35907273413176,564700392.0924705,0.9942588431288824
67.34150657750828,443300034.23244005,0.9942588431288824
73.90722033525783,345681195.8396494,0.9942588431288824
81.11308307896873,268485790.2066251,0.9942588431288824
89.02150854450393,207871231.16870144,0.9942588431288824
97.70099572992257,158725289.30186164,0.9942588431288824
107.22672220103243,119058236.01584974,0.9942588431288824
117.68119524349991,88768862.65116589,0.9942588431288824
129.1549665014884,66881773.101984054,0.9942588431288824
141.7474162926806,50101841.84719193,0.9942588431288824
155.56761439304722,36952541.800817415,0.9942588431288824
170.7352647470692,27238036.30485262,0.9942588431288824
187.3817422860385,19971808.703301232,0.9942588431288824
205.65123083486534,14612983.856534703,0.9942588431288824
225.70197196339214,10671140.455323199,0.9942588431288824
247.70763559917114,7825694.1511380095,0.9942588431288824
271.85882427329426,5715710.620306154,0.9942588431288824
298.364724028334,4051578.8079393064,0.9942588431288824
327.4549162877732,2855268.151321092,0.9942588431288824
359.3813663804629,2011475.746610173,0.9942588431288824
394.420605943766,1417041.9255819868,0.9942588431288824
432.87612810830615,998275.9286265724,0.9942588431288824
475.0810162102798,703264.1813092079,0.9942588431288824
521.400828799969,495434.673450412,0.9942588431288824
572.236765935022,349023.2009256786,0.9942588431288824
628.029144183426,245879.42934236265,0.9942588431288824
689.2612104349702,173216.83376171757,0.9942588431288824
756.463327554629,122027.5790402,0.9942588431288824
830.2175681319752,85965.83670901357,0.9942588431288824
911.1627561154896,60561.105441961525,0.9942588431288824
1000.0,49660.837423189194,0.9942588431288824
