Al-equivalent spherical shield thickness [mm],Ionising dose in Si [Gy]: Total,Trapped electrons,Bremsstrahlung,Trapped protons,Solar protons
0.01,29360.0,0.0,0.0,0.0,29360.0
0.02,16788.0,0.0,0.0,0.0,16788.0
0.03,12148.0,0.0,0.0,0.0,12148.0
0.05,8198.0,0.0,0.0,0.0,8198.0
0.07,6430.0,0.0,0.0,0.0,6430.0
0.1,4930.0,0.0,0.0,0.0,4930.0
0.2,2898.0,0.0,0.0,0.0,2898.0
0.3,2102.0,0.0,0.0,0.0,2102.0
0.5,1379.6,0.0,0.0,0.0,1379.6
0.7,1024.4,0.0,0.0,0.0,1024.4
1.0,740.2,0.0,0.0,0.0,740.2
2.0,379.0,0.0,0.0,0.0,379.0
3.0,247.0,0.0,0.0,0.0,247.0
5.0,138.36,0.0,0.0,0.0,138.36
7.0,92.14,0.0,0.0,0.0,92.14
10.0,58.44,0.0,0.0,0.0,58.44
20.0,22.12,0.0,0.0,0.0,22.12
30.0,11.866,0.0,0.0,0.0,11.866
50.0,4.996,0.0,0.0,0.0,4.996
