Coverglass (SiO2) thickness [um],Power ratio (EOL-to-BOL) [%]: GaAs SJ,Emcore 3J
25.0,73.89266970681952,82.76306676163921
50.0,79.98584354029714,86.87781998526334
75.0,83.14317223905718,88.99664934589728
100.0,85.28488893266477,90.42704951926176
150.0,88.03475868657846,92.25366181377854
200.0,89.77097305285919,93.40015530300116
300.0,91.98321066239428,94.85201216691301
500.0,94.29557721045812,96.35707119477938
700.0,95.53433893715899,97.1573196668112
1000.0,96.62652797019196,97.85899332757471
